<z>0</z> <x>100</x> <y>100</y> <n>Hell</n>
WWWWWWWWWWWWWWWWWWWWWWWWWWWWWWWWWWWWWWWWWWWWWW/\/\/\/\/\/\/\/\/\/\/\/\/\/\/\/\/\/\/\/\/\/\/\/\/\/\/\/\/\/\/\/\/\/\/\/\/\/\/\/\/\/\/\/\/\/\/\/\/\/\/\/\/\/\/\/\/\/\/\/\/\/\/\/\/\/\/\/\/\/\/\/\/\/\/\/\/\/\/\/\/\/\/\/\/\/\/\/\/\/\/\/\/\/\/\/\/\/\/\/\/\/\/\/\/\/\/\
WW~~~~~~~~~~~~~~~~~~~~~~~~~~~~~~~~. . . . . . /\/\/\/\/\/\. . /\/\/\/\/\/\. . . . /\/\/\/\/\/\/\/\/\/\/\/\/\/\/\/\/\/\/\/\/\/\/\/\/\/\/\/\/\/\/\/\/\/\/\/\/\/\/\/\/\/\/\/\/\/\/\/\/\/\/\/\/\/\/\/\/\/\/\/\/\/\/\/\/\/\/\/\/\/\/\/\/\/\/\/\/\/\/\/\/\/\/\/\/\/\/\/\/\
WW~~~~~~~~~~~~~~~~~~~~~~~~~~~~~~. . . . . . . . . . . . . . . . . . . . . . . . . . /\/\/\/\/\/\/\/\/\/\/\. . /\/\/\/\/\/\/\/\/\/\/\/\/\/\/\. . . . /\/\/\/\/\/\/\/\/\/\/\/\/\/\/\/\/\/\/\/\. . . . . . . /\/\/\/\/\. . /\/\/\/\/\/\/\. . /\/\/\/\/\/\/\/\/\/\/\/\/\
WW~~~~~~~~~~~~~~~~~~~~~~. . . . . . /\/\/\/\. . . . . . /\/\/\. . . . . /\/\/\/\/\. . /\/\/\/\. . /\/\/\. . . . /\/\/\/\/\/\/\/\/\/\/\/\/\. . . . . . . . . /\/\/\/\/\/\/\/\/\/\. . /\/\. . . . . . . . . . /\/\/\. . . . /\/\/\/\/\. . . . /\/\/\/\/\/\/\/\/\/\/\/\
WW~~~~~~~~~~~~~~~~~~~~. . . . . . . . /\/\. . /\/\/\. . /\/\. . . . /\/\/\/\/\/\/\/\. . . . . . . . . . . . . . /\/\/\/\/\/\/\/\/\/\/\/\/\. . {}{}{}{}. . . . /\/\/\/\/\/\/\/\. . . . . . . /\/\/\/\/\/\/\. . . . . /\/\. . /\/\/\/\. . /\. . /\/\/\/\/\/\/\/\/\/\/\
WW~~~~~~~~~~~~~~~~~~~~. . . /\/\. /\. . . . /\/\/\/\/\. . . . /\/\. . . . . . . /\/\/\/\. . . . . . . . . . . /\/\/\/\/\/\/\. . /\/\/\/\/\. . {}{}{}{}{}. . /\/\/\/\/\/\/\/\/\. . . /\/\/\/\/\/\/\/\/\/\/\/\/\. /\/\/\/\/\. . /\/\/\. . /\. /\/\/\/\/\/\/\/\/\/\/\/\
WW~~~~~~~~~~~~~~~~~~~~. . /\/\dn. /\/\. . /\/\/\/\/\/\. . . /\/\/\/\. . . /\/\. . /\/\/\/\. . . /\/\/\/\. . /\/\/\/\/\. . . . . . /\/\/\/\/\. {}{}{}{}. . /\/\/\/\/\/\/\/\/\/\/\. . /\/\/\/\/\/\/\/\/\/\/\/\/\/\/\/\/\/\/\. . /\/\/\. /\. . /\/\/\/\/\/\/\/\/\/\/\/\
WW~~~~~~~~~~~~~~~~~~. . . /\/\/\/\/\/\/\/\/\/\/\/\/\. . . . /\/\/\/\/\/\/\/\/\/\. . /\/\. . /\/\/\/\/\/\/\. /\/\/\/\. . . . /\/\. . /\/\/\/\. {}{}{}{}. /\/\/\/\/\/\/\/\/\/\/\/\/\. . /\/\/\/\/\/\/\. . . . /\/\/\/\/\/\. . /\/\/\. . /\. . /\/\/\/\/\/\/\/\/\/\/\/\
WW~~~~~~~~~~~~~~. . . . . . /\/\. . . /\/\/\/\/\/\/\. . . /\/\/\/\/\/\/\/\/\/\/\/\. . . . /\/\/\/\/\/\/\/\. . /\/\. . . . /\/\/\/\. . /\/\. . {}{}{}{}. /\/\/\/\/\/\/\/\/\/\/\/\/\/\. /\/\/\. . . . . /\/\. . /\/\/\/\. . /\/\/\/\. . . . /\/\/\/\/\/\/\/\/\/\/\/\/\
WW~~~~~~~~~~~~. . . /\/\/\. . . . . . . /\/\/\/\/\/\. . /\/\/\/\/\/\/\/\/\/\/\/\/\/\. . /\/\/\/\/\/\/\/\/\. . . . . /\. . /\/\/\/\. . . . . . {}{}{}{}. . /\/\. . . . . . . /\/\/\/\. . . . . . . . /\/\/\/\. /\/\/\. . /\/\/\/\/\. . . . /\/\/\. . /\/\/\/\/\/\/\/\
WW~~~~~~~~~~~~. . /\/\/\/\/\/\/\/\/\. . /\/\/\/\/\. . . /\/\/\/\/\. . . /\/\/\/\/\/\/\/\/\/\/\/\/\/\/\/\/\. . /\/\/\/\/\. /\/\/\/\/\. . . . . . . {}{}{}. . . . . . . . . . . /\/\. . . . {}{}{}{}{}{}/\/\/\. . /\. . /\/\/\/\/\. . . . /\/\/\. . . . /\/\/\/\/\/\/\
WW~~~~~~~~~~. . /\/\/\/\/\/\/\/\/\/\/\. /\/\/\/\/\. . /\/\/\. . . /\/\/\. . . . /\/\/\/\/\/\/\/\/\/\/\/\. . /\/\/\/\/\/\. . /\/\/\/\. . /\/\. . . . . {}/\{}. . . . . . . . . . . . . . {}{}{}{}{}{}{}/\/\/\. . . . /\/\/\/\. . . . . /\/\/\/\. . /\. . /\/\/\/\/\/\
WW~~~~~~. . . /\/\/\/\/\/\/\/\/\/\/\/\. . /\/\/\. . /\/\/\. /\/\/\/\/\. . . . . . /\/\/\/\/\/\/\/\/\/\. . . . /\/\/\/\/\. . . /\/\. . /\/\/\/\/\/\/\. . /\/\. . /\/\/\/\/\. . . /\{}{}. {}{}{}{}{}{}{}/\/\/\. . . _][][][]. . . . . {}~~{}{}{}. . /\/\. . . . /\/\/\
WW~~~~. . . /\/\/\/\/\/\/\/\/\/\/\/\/\/\. . . . . /\/\/\. /\/\/\/\/\/\. . {}{}{}. . /\/\/\/\. . . . . . /\/\. . /\/\/\. . . . . . . . /\/\{}{}{}{}{}{}. . . . {}{}{}{}{}{}{}. /\/\{}{}. . {}{}{}{}{}{}/\/\/\. . [_[]. . []. . . . . ~~{}{}{}{}{}. /\/\/\/\. . . /\/\
WW~~~~. . /\/\/\/\/\/\/\. . . . . . . . . . . . /\/\. . /\/\/\/\/\/\. . {}{}{}{}. . /\/\/\. . . . . . /\/\/\/\. /\/\. . /\/\/\/\. . /\/\/\{}{}{}{}{}{}. . . {}{}{}{}{}{}{}{}. . /\{}{}. . {}{}{}{}{}{}/\/\/\. . []. . . [][]. . . tt{}~~{}{}{}{}. /\/\/\/\/\. . /\/\
WW~~~~. . /\/\/\/\/\/\. . /\/\. . . . . . /\/\/\/\DDSDDD/\/\. . . . . . . . . . . . /\/\/\. . /\/\. . /\/\/\/\. . . . /\/\/\/\/\/\/\/\/\/\{}{}{}{}{}{}. . {}{}{}{}{}{}{}{}{}. {}{}{}{}. {}{}{}{}{}{}{}/\/\/\. . [][]_]. [_[][]. tt{}tt~~~~{}{}. . /\/\/\/\/\. . /\/\
WW~~~~. /\/\/\/\/\/\. . /\/\/\/\/\/\/\/\/\/\/\DDDD. DD/\/\. . . . . . . . . . . . /\/\/\. . /\/\/\/\. /\/\/\/\. . . /\/\/\/\/\/\/\/\/\. . {}{}{}{}{}{}. {}{}{}{}{}{}{}{}{}. . {}{}{}. . {}{}{}{}{}{}{}/\/\/\. . . [][]. []_][]tt. {}tt~~~~{}. . /\/\/\/\/\/\. . /\/\
WW~~. . /\/\/\/\/\/\. /\/\/\/\/\/\/\/\/\/\DDDD. . . DD/\. . . . . . . /\/\/\/\/\/\/\/\/\. . /\/\/\/\. . /\/\/\. . . /\/\/\/\/\. . . . . . . . {}{}{}. . {}{}{}{}{}{}{}{}{}. . {}{}{}{}. {}{}{}{}{}{}{}/\/\/\. . . . . . []_][]. . . ~~tt~~{}. . /\/\/\/\/\/\. . /\/\
WW~~. . /\/\/\. . . . /\/\/\/\/\/\/\/\/\/\dn. . DDDD/\/\. . /\/\/\/\/\/\/\/\/\/\/\/\/\. . /\/\/\/\/\. . /\/\/\. . . /\/\/\/\. . . . . . . . . . . . . . {}{}{}{}{}{}{}{}{}. . {}{}{}{}. . {}{}{}{}{}{}/\/\. . [][]. . . . . . . . . . ~~tt~~{}. . /\/\/\/\/\. . /\/\
WW~~. /\/\. . . . . . . /\/\/\/\/\/\/\/\/\DDDD. DD/\/\. . /\/\/\/\/\/\/\/\/\/\/\/\/\. . /\/\/\/\. . . /\/\/\/\/\. . . /\/\/\. . . . /\/\. . {}{}. {}{}. . {}{}{}{}{}{}{}{}. . {}{}{}{}{}. . {}{}/\/\/\. . . []_][][]. . . . {}tt{}. . tttt~~{}{}. . /\/\/\/\. . /\/\
/\. . /\. . {}{}{}{}. . . . . /\/\/\/\/\/\DDDDDD/\/\. . . /\/\/\/\/\/\/\/\/\/\/\/\. . /\/\/\/\. . . /\/\/\/\/\/\. . . /\/\/\. . . /\/\/\/\. {}{}{}{}{}{}. . {}{}{}{}{}{}{}. . {}{}{}{}{}/\. . {}/\/\. . . . []. . | . . {}{}{}{}{}. . ~~tttttt{}{}. /\/\/\/\. . /\/\
/\. . . . {}{}{}{}{}{}. . . . . {}{}{}{}{}/\{}/\/\. . . . /\/\/\/\/\/\/\/\/\/\/\/\. . /\/\/\. . /\/\/\/\/\/\/\/\. . . /\/\/\/\. . /\/\/\/\. {}{}{}{}{}{}{}. . . . {}{}{}{}. {}{}{}{}{}{}/\. . /\/\/\. . . . []==[][]. {}TT{}tt~~tt{}. {}{}tt{}{}{}. /\/\/\/\. . /\/\
/\/\. . . {}{}{}{}{}{}{}. /\{}. . /\/\{}{}{}/\/\. . . . . /\/\/\/\/\/\/\/\/\/\/\/\/\. . . . . /\/\/\/\/\/\/\/\. . . . . /\/\/\/\. . /\/\. . {}{}{}{}{}{}{}{}{}. . . {}{}. . {}{}{}{}{}{}{}. . /\/\/\/\. . . []. _]. . {}tt~~~~tttt{}. . {}tttt{}. . /\/\/\/\. . /\/\
/\/\. . . {}{}{}{}{}{}{}. {}/\/\. . /\{}{}{}/\{}. . . . /\/\/\/\/\/\/\/\/\/\/\/\/\/\/\. . . /\/\/\/\/\/\/\/\. . . /\/\. . /\/\/\. . . . . . . . . . . . . {}{}{}{}. . . . {}{}{}{}{}{}{}{}. /\/\/\/\/\. . . [][][]. . . {}{}tt{}{}{}. . . . . . . /\/\/\/\/\. . /\/\
/\/\. . . . {}{}{}{}{}. . /\{}{}. . /\/\{}{}{}/\. . . /\/\/\/\/\/\/\/\/\/\/\/\/\/\/\/\/\/\/\/\/\/\/\/\/\/\. . . /\/\/\/\. . /\/\/\. . . . . . . . . . . . . . /\{}{}{}{}{}{}{}{}{}{}{}{}/\. /\/\/\/\. . . . _]_][][]. . . {}{}{}tt{}. . . . . . /\/\/\/\/\/\. /\/\/\
/\/\. . . . . {}{}{}. . /\/\{}/\/\. /\/\{}{}{}. . . /\/\/\/\/\. /\/\/\/\/\/\/\/\/\/\/\/\/\/\/\/\/\/\/\/\. . . . /\/\/\/\. . /\/\/\/\/\/\/\/\/\/\/\/\/\/\/\/\. . {}{}{}{}{}{}{}{}{}{}{}{}/\. . /\/\. . . . _]_][_. [][][]. . tttttt. . . . . . . /\/\/\/\/\. . /\/\/\
/\/\/\. . . . /\/\/\. . /\/\/\{}{}. . /\/\/\. . . . /\/\/\/\. . /\/\/\/\/\/\. . . . /\/\/\/\/\/\/\/\/\/\. . . . /\/\/\. . . /\/\/\/\/\/\/\/\/\/\/\/\/\/\/\/\/\. . {}{}{}{}{}{}{}{}{}{}{}/\/\. . . . /\. . [_[_. . . [][]_]. . . . . . _]----[]. /\/\/\/\. . . /\/\/\
/\/\/\/\. . /\/\/\/\. . /\/\{}{}{}{}. . . . . . . . . /\/\. . /\/\/\/\/\/\. . . . . . . . /\/\/\/\/\/\/\. . . . /\/\/\. . /\/\/\/\/\/\. . /\/\/\/\/\/\/\/\/\/\/\. {}{}{}{}. . . . {}{}{}/\/\/\. . . /\/\. _]. []--[][]. . _]. . . . . []. . []. . /\/\. . . /\/\/\/\
/\/\/\/\. . /\/\/\/\. . /\/\/\/\{}{}{}. . /\/\/\/\. . . . . . /\/\/\/\/\/\. . /\/\/\. . . . . . /\/\/\. . . . /\/\/\/\. . /\/\/\/\/\. . . . /\/\/\. . . /\/\/\/\. {}{}{}. . {}{}. . . . . . . . . . . . . . [][]. . []. . [][_[]. . . []. . [_. . /\. . /\/\/\/\/\/\
/\/\/\/\. . . /\/\/\. . /\{}{}{}{}{}. . /\/\/\/\/\/\. . . . . . /\/\/\/\. . /\/\/\/\/\. . /\. . . . . . /\. . /\/\/\/\/\. . /\/\. . . /\/\. . . . . . . . /\/\. . {}{}{}. {}{}{}{}. . . . . . . {}{}. . . . . . . . . . . | . [][]. . []_][][]. /\/\. /\/\/\/\/\/\/\
/\/\/\. . . . /\/\/\/\. . /\{}{}{}{}. . /\/\/\/\/\/\/\. . . . . /\/\/\/\. . /\/\/\/\/\. /\/\/\/\/\. /\/\/\. . /\/\/\/\/\. . . . . . /\/\/\/\/\. . . . . . . . . . {}{}. . {}{}{}{}{}{}{}{}{}{}{}{}{}{}. . /\[][][][]. . [](). . _][]. . []_]. . /\. . /\/\/\/\/\/\/\
/\/\/\. . . . /\/\/\/\/\. . /\{}{}. . /\/\/\/\/\/\/\/\/\/\. . /\/\/\/\. . . /\/\/\/\. . /\/\/\/\/\/\/\/\/\/\. /\/\/\/\. . /\/\/\/\/\/\/\/\/\/\/\. . /\/\. . . . . . . . . {}{}{}{}{}{}{}{}{}{}{}{}{}{}. . /\[][][][]. . []. . . [][]. . . . . . . . . /\/\/\/\/\/\/\
/\/\/\/\. . /\/\/\/\/\/\/\. . {}{}. . /\/\/\/\/\/\/\/\/\/\/\/\/\/\/\/\. . . . /\/\. . /\/\/\/\/\/\/\/\/\/\/\. . /\/\. . /\/\/\/\/\/\/\/\/\/\/\/\. /\/\/\/\. . /\/\/\. . . /\/\{}{}{}{}{}{}{}{}{}{}{}{}{}. . [][][][]. . [][][]--[][][]. . . _][]. . . . /\/\/\/\/\/\
/\/\/\/\/\/\/\/\/\/\/\/\/\. . . . . /\/\/\/\/\/\/\/\/\/\/\/\/\/\/\/\. . /\/\. . . . /\/\/\/\/\/\/\/\/\/\/\/\/\. . . . /\/\/\/\/\/\/\/\/\/\/\/\/\. /\/\/\/\/\/\/\/\/\/\. . /\/\{}{}{}. . . {}{}{}{}{}{}{}/\. . [][]. . _][][]. . . [][]. . [][_. []. . . /\/\/\/\/\/\
/\/\/\/\/\/\/\/\/\/\/\/\/\MM. . . /\/\/\/\/\/\/\/\. . . /\/\/\. . . . /\/\/\/\/\/\/\/\/\/\/\/\/\/\/\/\/\/\/\/\/\/\/\/\/\/\/\/\/\/\/\/\/\/\/\/\/\. . /\/\/\/\/\/\/\/\/\. . . /\{}{}. . . . {}{}{}{}{}{}{}{}{}. . . . {}[_[][]. . . [][]{}. _]_]_][]. . . /\/\/\/\/\/\
/\/\/\/\/\/\/\/\/\/\/\/\/\/\/\/\/\/\/\/\/\. . . . . . . . . . . . . . /\/\/\/\/\/\/\/\/\/\/\/\/\/\/\/\/\/\/\/\/\/\/\/\/\/\/\/\/\/\/\/\/\/\/\/\/\/\. . /\/\/\/\/\/\/\/\. . . . . . . . . . {}{}{}{}{}{}{}{}{}[]. . . tt_][][_[]_][][][]{}. . [__]. . . . /\/\/\/\/\/\
/\/\/\/\/\/\/\/\/\/\/\/\/\/\/\/\/\/\/\. . . . . . DDDDDD. . . . . . . . /\/\/\/\/\/\/\/\/\/\/\/\/\/\/\/\/\/\/\/\/\/\/\/\/\/\/\/\/\/\/\/\/\/\/\/\/\. . /\/\/\/\/\/\/\/\/\. . . . {}{}{}. {}{}{}{}{}{}{}{}{}{}/\. . . . /\_]. . . {}tttt. . . . . . . . /\/\/\/\/\/\/\
/\/\/\/\/\/\/\/\/\/\/\/\/\/\/\/\/\/\. . . . . . DDDDMMDDDD. . . . {}{}. . /\/\/\/\. . /\/\/\/\/\. . . . /\/\/\/\/\/\/\/\/\/\/\/\/\/\/\/\/\/\/\/\/\/\. /\/\/\/\/\/\/\/\/\/\. /\{}{}{}. . {}{}{}{}{}{}{}{}{}{}{}. . {}. . . . . . . . . . . . . . {}. . /\/\/\/\/\/\/\
/\/\/\/\/\/\/\/\. . /\/\/\/\/\/\/\/\. . DDDD. . DDDD. DDDD. . . {}{}{}{}. . . . . . . . . /\/\. . DDDD. . /\/\/\/\/\/\/\/\/\/\/\/\/\/\/\/\/\/\/\/\/\. . /\/\/\/\/\/\/\/\/\. /\/\/\/\/\. /\{}{}{}{}{}{}{}{}{}{}. . . /\/\/\/\/\/\. . /\/\/\. . . . . /\/\/\/\/\/\/\/\
/\/\/\/\/\/\. . . . . /\/\/\/\/\/\. . DDDDDDDD. . DD--DD. . . . {}{}{}{}{}. . . DDDDDDDD. . . . DDDDDDDD. . /\/\/\/\/\/\/\/\/\/\/\/\/\/\/\/\/\/\/\/\. . /\/\/\/\/\/\/\/\. . /\/\/\/\/\. . {}{}{}{}{}{}{}{}{}{}{}. . . /\/\/\/\/\. /\/\{}{}{}{}. . . /\/\/\/\/\/\/\/\
/\/\/\. . . . . /\. . /\/\/\/\/\. . . DD. . | . . . . . . . . . . {}{}{}{}. . . DD. . DDDD. . DDDD. . DD. . . /\/\/\/\/\/\/\/\/\/\/\/\/\/\/\/\/\/\/\. . /\/\/\/\/\/\/\. . /\/\/\/\/\/\/\. . . . . {}{}{}{}{}{}{}{}{}. . /\/\/\. . /\/\{}{}{}{}/\. . . /\/\/\/\/\/\/\
/\/\. . . /\/\/\/\. . /\/\/\/\. . . . DD. . DD. . . . DDDDDDDDDD. . {}{}. . . . DDCC==DDDD. . DDDD==CCDDDD. . . . /\/\/\/\/\/\/\/\/\/\/\/\/\/\/\/\/\. . /\/\/\/\/\/\/\. . /\/\/\/\/\/\/\/\/\. . . . {}{}{}{}{}{}{}{}{}. /\/\/\. . /\/\{}{}{}{}/\/\. . . . /\/\/\/\/\
/\/\. . /\/\/\/\. . /\/\/\/\/\. . . . DD. . DD. . . . DD. . . DD. . . . . . . . DD. . . DD. . . DD. . DDDDDDDD. . . . /\/\/\/\/\. /\/\/\/\/\/\/\/\/\. /\/\/\/\/\/\/\/\. . /\/\/\/\/\/\/\/\/\/\/\/\. . . {}{}{}{}{}{}{}. . . . . . . {}{}{}{}{}{}{}{}. . . . . /\/\/\
/\/\. /\/\/\/\. . /\/\/\/\/\/\. . . . DDCCDDDD. . . . | . . . DD. DDDD--DDDD. . DD. . DDDD. . . DDDD. DDDDDDDDDDDDDD. . /\/\. . . . . /\/\/\/\/\/\/\. /\/\/\/\/\/\/\/\/\. /\/\/\/\. . . . /\/\/\/\{}. . . {}{}{}{}{}{}. . . {}{}{}. . . {}{}{}{}{}{}/\. . . . . /\/\
/\. . /\/\/\/\. /\/\/\/\/\/\/\/\. . . DD. DDDD. . . . DDDDDDCCDD. DD. . . DD. DDDD. DDDD. . . . DDDD--DDDDDDDDDDDDDDDD. . . . ~~~~~~. . /\/\/\/\/\/\. . /\/\/\/\/\/\/\/\. /\/\/\. . ~~~~. . /\/\/\. . . . . {}{}{}{}{}. . {}{}{}{}{}. . . {}{}{}{}{}/\. . /\. . /\/\
/\. . /\/\/\/\. /\/\/\/\/\/\/\/\/\/\. DDDDDD. . . . . . . DD. DD. DD. . MMDD. DDDD--DD. . {}. . DDDD. . . {}. DDDDDDDD. . . ~~~~~~~~~~. /\/\/\/\/\/\. . . /\/\/\/\/\/\. . /\/\/\. ~~~~~~~~. /\/\. . /\/\. . . {}{}{}{}. . {}{}{}{}{}. . . {}{}{}{}{}/\. /\/\. . /\/\
/\/\. . /\/\/\. . /\/\/\/\/\/\/\/\/\. . . . . . {}{}. . . DDDDDD. DDDDDDDDDD. . . . . . {}{}. . DDDD. . . ::. . DDDD. . . ~~~~~~~~~~~~. /\/\/\/\/\/\. . . . . . /\/\. . . . /\. . ~~~~~~~~. /\/\. /\/\/\/\. . . {}{}{}{}. . {}{}{}{}. . . {}{}{}{}{}. . . . . /\/\/\
/\/\/\. . /\/\. . . . . . /\/\/\/\/\/\/\/\. . {}{}{}{}. . . . . . . . . . . . . . . . . {}{}. . DDDD. {}::MM::{}DDDD. . ~~~~~~~~~~~~. . /\/\/\/\/\. . /\/\. . . . . . . . . . . . . ~~~~. . /\/\. /\/\/\/\{}. . . {}{}{}{}. . {}{}. . . . {}{}{}{}{}. . . . /\/\/\/\
/\/\/\. . . . . . . . . . . /\/\/\/\/\/\. . . {}~~~~{}. DDDDDDDDDDDDDDDDDDDD{}. . . . . . . . DDDDDD. . . ::. . DDDD. . ~~~~~~~~~~~~. . /\/\/\/\. . /\/\/\/\. . . . . . /\/\/\. . . . . . /\/\/\. . /\/\/\{}. . . . {}{}{}{}. . . . {}. . {}{}{}{}{}. . . /\/\/\/\/\
/\/\/\/\. . /\/\. . /\/\. . /\/\/\/\. . . . {}~~~~~~. . DD. . . . . . CC. DD. . DD----DD. . DDDDDDDD. . . {}. . DDDD. . . ~~~~~~~~. . /\/\/\/\. . /\/\/\/\/\. . /\/\/\/\/\/\/\/\. . /\/\/\/\/\/\/\. . /\/\. . {}. . /\{}{}{}. . {}{}{}{}. {}{}{}{}. . . . /\/\/\/\/\
/\/\/\/\/\/\/\/\/\. /\/\. . /\/\/\. . . . {}{}~~~~{}. . | . . . DDDDDDDDDDDD. DDDD. . DDDDDDDD. . | . . . . . DDDDDDDD. . . ~~~~. . /\/\/\/\/\. /\/\/\/\/\. . /\/\/\/\/\/\/\/\/\. . /\. . /\/\/\/\/\. . . . . {}{}. . {}{}{}. . {}{}{}{}. . {}{}. . /\/\. /\/\/\/\/\
/\/\/\/\/\/\/\/\/\. /\/\. /\/\/\/\. . . {}{}~~~~{}. . DDDD==CCDDDD. . . . . . DDDD. . . . . . . . DDDDDDDDDDDDDDDDDDDDDD. . . . . /\/\/\/\/\/\. /\/\/\/\. . . /\/\/\/\/\/\/\/\. . . . . . . . . /\/\/\. . . . . {}{}. . {}{}{}. . {}{}{}. . . . . . /\/\. . /\/\/\/\
/\/\/\/\/\/\/\/\. . /\/\. /\/\/\/\/\. . {}~~~~~~. . DDDDDD. . DDDD. {}{}. . . . DD. . DDDDDDDD. . . . . . . | . . . . DD. . . . . /\/\/\/\/\/\. . /\/\. . . /\/\/\/\/\/\/\/\/\. . . /\/\/\/\. . . . . . . /\/\. . . . . {}{}{}{}. {}{}{}. . . . . . /\/\. . /\/\/\/\
/\/\/\/\/\/\/\/\. . /\/\. . /\/\/\/\/\. . {}{}. . . DDDDDDDDDDDD. {}{}{}{}. . . DDDDDDDD. . DDDD. DDDDDDCCDDDD. . . . DDDD. . . . . . /\/\/\/\/\. . . . /\/\/\/\/\/\. . /\/\. . . /\/\/\/\/\/\/\/\. . . /\/\/\/\. . . {}{}{}{}{}. . {}. . {}{}{}{}. . /\. . /\/\/\/\
/\/\/\/\/\/\/\. . /\/\/\/\. . /\/\/\/\. . . . . . . . . . . {}. . {}{}{}{}. . . . DDDD. . . . DDDDDDDD. . . DD. . . . DDDD. . . /\/\. . /\/\/\/\/\. . /\/\/\/\/\/\. . . . . . . . /\/\/\/\/\/\/\/\/\/\/\/\/\/\/\. . /\{}{}{}{}{}. {}{}. {}{}{}{}{}{}. /\. . /\/\/\/\
/\/\/\/\/\/\/\. . /\/\/\/\/\. . /\/\/\/\. . . /\/\/\. . . . . . . . {}{}. . /\/\. . . . /\/\. . . . DDDDDDDDDDDDDDDDDDDD. . . /\/\/\/\. /\/\/\/\/\. . /\/\/\/\/\/\. . . /\/\/\. . /\/\/\/\/\/\/\/\/\/\/\%%/\/\/\. . /\{}{}{}{}. . {}. . {}{}{}{}{}{}. /\. . /\/\/\/\
/\/\/\/\/\/\/\/\. /\/\/\/\/\. . /\/\/\/\/\/\/\/\/\/\/\/\/\/\/\. . . . . . /\/\/\/\/\/\/\/\/\/\/\. . . {}{}{}{}{}{}{}. . . . . /\/\/\/\. . /\/\/\/\. . /\/\/\/\/\/\/\. . /\/\/\/\. /\/\/\/\/\/\/\/\/\%%%%. %%/\/\. . /\{}{}{}. . . . . . {}{}{}{}{}. . /\. . /\/\/\/\
/\/\/\/\/\/\/\/\. . /\/\/\/\/\. . /\/\/\/\/\/\/\/\/\/\/\/\/\/\/\. . /\/\/\/\/\/\/\/\/\/\/\/\/\/\/\/\. . . . . {}{}. . . . . . /\/\/\/\. . /\/\/\/\/\. /\/\/\/\/\/\/\/\. /\/\/\/\. . /\/\/\. . /\/\/\%%. %%%%/\/\. . . /\/\. . . . . . /\/\/\/\/\/\. . /\/\. /\/\/\/\
/\/\/\/\/\/\/\/\. . /\/\/\/\/\. . . /\/\/\/\/\/\/\. . /\/\/\/\/\. . /\/\/\/\/\/\/\/\/\/\/\/\/\/\/\/\/\/\. . . . . . . . . . . . /\/\/\/\. . /\/\/\/\. . /\/\/\/\/\/\/\. /\/\/\/\/\. . . . . . . /\/\. . . %%/\/\. . . . . . . . . /\/\/\/\/\/\/\/\. /\/\/\. . /\/\/\
/\/\/\/\/\/\/\/\. /\/\/\. . . . . . . /\/\/\/\/\. . . . /\/\/\/\. /\/\/\/\/\. . . . /\/\/\/\/\/\/\/\/\/\/\/\. . /\/\. . /\/\. . . /\/\/\/\. . /\/\/\. . /\/\/\/\/\/\. . . /\/\/\/\/\/\. /\/\. . /\/\/\. /\/\/\/\. . /\. . . . . /\/\/\/\/\/\/\/\. . /\/\/\. . /\/\/\
/\/\/\/\/\/\/\. . . . . . . . /\/\/\. . {}{}. . . {}/\. . /\/\. . /\/\/\/\. . /\/\. . /\/\/\/\/\/\/\/\/\. . . . /\/\. /\/\/\/\. . . /\/\/\/\. /\/\/\. . . /\/\. . . . . . . /\/\/\/\/\/\/\/\. . /\/\/\. /\/\/\/\. . /\. . . . . /\/\/\/\/\/\/\. . . /\/\/\/\. . /\/\
/\/\/\/\/\/\/\. . . . /\/\/\/\/\/\/\/\. . . . . {}{}{}{}. . . . /\/\/\/\/\. /\/\/\/\. . /\/\/\/\/\/\/\. . /\/\. . . . /\/\/\/\. . . /\/\/\/\. . . . . . . . . . . . . /\/\. . /\/\/\/\/\/\. . /\/\/\. . /\/\/\/\. . . . /\/\. . . /\/\/\/\/\/\. . . . . . /\. . /\/\
/\/\/\/\/\/\/\. . . /\/\/\/\/\/\/\/\/\. . {}. . {}{}{}{}. . /\/\/\/\/\/\. . /\/\/\/\/\. /\/\/\/\/\/\/\. /\/\/\/\. . . /\/\/\. . . . /\/\/\/\. . . /\/\. . . /\/\/\. /\/\/\/\. /\/\/\/\/\/\. /\/\/\. . /\/\/\/\/\/\. . /\/\/\/\/\. . /\/\/\/\/\. . . /\/\. . . . /\/\
/\/\/\/\/\/\/\. . . /\/\/\/\/\{}/\/\{}. . {}{}. . {}{}. . /\/\/\/\/\/\/\. . /\/\/\/\/\. . /\/\/\/\/\. . /\/\/\/\. . . /\/\. . /\/\. . /\/\. . . /\/\/\/\. /\/\/\. . /\/\/\/\. . /\/\/\/\/\. /\/\/\. /\/\/\/\/\/\/\/\/\/\/\/\/\/\/\. . /\/\/\/\. . /\/\/\/\. . . /\/\
/\/\/\/\/\/\/\. . /\/\/\/\. . /\{}/\{}TT. . . . . . . . /\/\/\/\/\/\/\/\. . /\/\/\/\/\. /\/\/\. . . . . /\/\/\/\. . . /\/\. . /\/\/\. . . . . . /\/\/\/\. . /\/\/\. /\/\/\/\. /\/\/\/\/\/\. . /\/\. /\/\. . /\/\/\/\/\/\/\/\/\/\/\/\. . /\/\. . . /\/\/\/\/\. . /\/\
/\/\/\/\/\/\. . . /\/\/\. . . . {}/\/\{}/\. . . . . . /\/\/\/\/\/\/\/\/\/\. /\/\/\/\. . /\/\. . /\/\. . . /\/\. . . /\/\/\/\. . /\/\/\/\/\/\. . /\/\/\/\. . /\/\/\. . /\/\. . /\/\/\/\/\/\/\. . . . . . . . . /\/\/\/\/\/\/\/\/\/\/\. . . . . . . /\/\/\/\/\. . /\/\
/\/\. . . . . . . /\/\. . /\/\. . /\/\{}{}{}{}/\/\. . /\/\/\/\/\/\/\/\/\/\. . /\/\/\. . . . . /\/\/\/\. . . . . . /\/\/\/\/\/\. /\/\/\/\/\/\. . /\/\/\/\. . /\/\/\. . . . . /\/\/\/\/\/\/\/\/\/\. . . . /\/\. . /\/\/\/\. . . /\/\/\/\. . . . . . . /\/\/\. . . /\/\
/\. . . . . . . /\/\/\. . /\/\. . {}/\/\{}/\/\{}{}/\. /\/\/\/\/\/\/\/\/\/\. . /\/\/\/\. . . /\/\/\/\/\. . {}{}. . /\/\/\/\/\/\. . /\/\/\/\/\. . /\/\/\/\. . /\/\. . . . . /\/\/\/\/\/\/\/\/\/\. . . . . . /\/\. . . . . . . . . /\/\/\/\. . . /\/\. . . . . . . /\/\
/\. . /\/\. . /\/\/\/\. . /\/\/\. . /\{}/\{}{}/\/\{}. /\/\/\/\/\/\/\/\. . . . . /\/\/\. . /\/\/\/\/\/\. . {}{}{}. /\/\/\/\/\/\. . /\/\/\/\/\. . /\/\/\/\/\. . . . /\/\. . /\/\/\/\/\/\/\/\/\. . . ~~~~~~. . /\/\/\. . . . . . . . /\/\/\/\/\/\/\/\/\. . /\/\. . /\/\
/\/\. /\/\. /\/\/\/\/\. /\/\/\/\. . /\/\{}/\/\{}{}. . /\/\/\/\/\. . . . /\/\. . . . . /\/\/\/\/\/\/\/\/\. . /\. . . /\/\/\/\/\. . /\/\/\/\/\/\. /\/\/\/\/\. . . /\/\/\/\. /\/\/\/\/\/\/\/\. . ~~~~~~~~~~~~. . /\/\/\/\. . /\/\. . /\/\/\/\/\/\/\/\/\. /\/\/\. . /\/\
/\/\. . . . /\/\/\/\. . /\/\/\/\. . . /\/\{}{}. . . /\/\/\/\. . . . . /\/\/\/\. . . . /\/\/\/\/\/\/\/\/\. . . . . . . /\/\/\/\. /\/\/\/\/\/\/\. . /\/\/\/\. . /\/\/\/\/\. /\/\/\/\/\/\/\/\. ~~~~~~~~~~~~~~~~. /\/\/\/\. /\/\/\/\. . /\/\/\/\/\/\/\. . /\/\/\. . /\/\
/\/\. . . . /\/\/\/\. . /\. . . . . . . /\/\. . . /\/\/\/\. . /\/\/\/\/\/\/\/\/\. . . /\/\/\/\/\/\/\/\. . . /\/\/\/\. . /\/\. . /\/\/\/\/\/\/\. . /\/\/\/\. . /\/\/\/\. . /\/\/\/\/\/\/\/\. ~~~~~~~~~~~~~~~~. /\/\/\. . /\/\/\/\. . . /\/\/\. . . . . /\/\/\. . /\/\
/\/\. . . . /\/\/\. . . . . . /\/\. . . . . . /\/\/\/\/\. . /\/\/\/\/\/\/\/\/\/\. . . . /\/\/\/\/\. . . . /\/\/\/\/\/\. . . . /\/\/\/\/\/\/\/\. . /\/\/\/\. . . /\/\. . /\/\/\/\/\/\/\/\/\. . ~~~~~~~~~~~~. . /\/\/\/\. /\/\/\/\. . . /\/\. . . . . . . /\. . /\/\/\
/\/\. . . . /\/\/\. . . . /\/\/\/\/\. . . /\/\/\/\/\/\/\. . /\/\/\/\/\/\/\/\/\. . {}{}. . . . . . . . . . /\/\/\/\/\/\/\. . . /\/\/\/\/\/\/\/\. . /\/\/\/\. . . . . . /\/\/\/\/\/\/\/\/\/\/\. . ~~~~~~. . . /\/\/\/\/\. . /\/\. . . . /\/\. . . . ~~~~. . . . ~~~~WW
/\/\. . . . /\/\/\/\. . /\/\/\/\/\/\/\. . /\/\/\/\/\/\/\. /\/\/\/\/\/\/\/\/\. . {}/\/\. . . . . {}. . . /\/\/\/\/\/\/\/\/\/\. . /\/\/\/\. /\. . . /\/\/\/\/\. . . /\/\/\/\/\/\/\/\. /\/\/\/\. . ~~~~. . . /\/\/\/\/\/\/\. . . . . . . /\WWWW. . ~~~~~~~~. . ~~~~~~WW
/\/\. . /\. /\/\/\/\. . /\/\/\/\/\/\/\. . /\/\/\/\/\/\. . /\/\/\/\/\/\/\/\/\. . /\{}. . . . . {}{}. . /\/\/\/\/\/\/\/\/\/\/\/\. . /\. . . . . [][]/\/\/\/\/\/\. /\/\/\/\/\/\/\. . . . . /\/\. . ~~~~. . . /\/\/\/\/\/\/\. . . . . . /\/\WW~~~~~~~~~~~~~~~~~~~~~~~~WW
/\/\. . . . . /\/\. . . /\/\/\/\/\/\/\/\. . . . . . . . . /\/\/\/\/\/\/\/\/\. . . . . /\/\/\. . . . /\/\/\/\/\/\/\/\/\/\/\/\/\. . . . /\/\/\. . []/\/\/\/\/\/\. . /\/\/\/\/\. . /\/\/\. . . . ~~~~~~~~. . . . . . . . . . ~~~~~~WWWWWWWWWW~~~~~~~~~~~~~~~~~~~~~~~~WW
/\/\/\. . . . . . . . /\/\/\/\/\/\/\/\/\/\. . . . . . . /\/\/\/\/\/\/\/\/\/\/\/\. . /\/\/\/\/\. . /\/\/\/\/\/\/\/\/\/\/\/\/\/\/\. . /\/\/\/\/\[][]/\/\/\/\/\/\. . . . . . . . /\/\/\/\/\. . ~~~~WWWW~~~~~~~~. . . . . . ~~~~~~~~~~~~~~~~~~~~~~~~~~~~~~~~~~~~~~~~~~WW
/\/\/\/\/\/\/\. . . /\/\/\/\/\/\/\/\/\/\/\/\/\/\/\/\/\/\/\/\/\/\/\/\/\/\/\/\/\/\/\/\/\/\/\/\/\/\/\/\/\/\/\/\/\/\/\/\/\/\/\/\/\/\/\/\/\/\/\/\/\/\/\/\/\/\/\/\/\/\. . . . . . /\/\/\/\/\/\/\/\WWWWWWWWWWWW~~~~~~~~~~~~~~~~~~~~~~~~~~~~~~~~~~~~~~~~~~~~~~~~~~~~~~~~~~WW
/\/\/\/\/\/\/\/\/\/\/\/\/\/\/\/\/\/\/\/\/\/\/\/\/\/\/\/\/\/\/\/\/\/\/\/\/\/\/\/\/\/\/\/\/\/\/\/\/\/\/\/\/\/\/\/\/\/\/\/\/\/\/\/\/\/\/\/\/\/\/\/\/\/\/\/\/\/\/\/\/\/\/\/\/\/\/\/\/\/\/\/\/\/\WWWWWWWWWWWWWWWWWWWWWWWWWWWWWWWWWWWWWWWWWWWWWWWWWWWWWWWWWWWWWWWWWWWWWWWW
<z>-20</z> <x>98</x> <y>115</y> <n>Level -1 -20'</n>
DD/\/\/\/\/\/\/\/\/\/\/\/\/\/\/\/\/\/\DDDDDDDDDDDD/\/\/\/\/\/\DD
DD/\/\/\/\/\/\/\/\/\/\/\/\/\/\/\/\/\/\DDDDMM. . DD/\/\/\/\/\/\DD
DD/\/\/\/\/\/\/\. . . /\/\/\/\/\/\/\/\DD. . . . DD/\/\/\/\/\/\DD
DD/\/\/\/\. . . . . . . . . /\/\. . . | . . . upDD/\/\/\/\/\/\DD
DD/\/\/\. . . . ~~~~~~. . . . /\. /\/\DDDDDDSDDDDD/\/\/\/\/\/\DD
DD/\/\/\. . . ~~~~~~~~~~. . . . . /\/\/\/\/\. /\/\/\/\/\/\/\/\DD
DD/\/\/\. . ~~~~~~~~~~~~. . . . . /\/\/\/\/\. /\/\/\/\/\/\/\/\DD
DD/\/\/\. . ~~~~~~~~~~. . . . . . /\/\/\/\. . . /\/\/\/\/\/\/\DD
DD/\/\/\. . ~~~~~~~~. . /\/\. . . /\/\. CC. . . /\/\/\/\/\/\/\DD
DD/\/\. . . ~~~~~~. . /\/\/\/\. . /\/\/\/\. . /\/\/\. . . /\/\DD
DD/\/\. . . ~~~~~~. . /\/\/\/\. . /\/\/\/\/\/\/\. . . . . . /\DD
DD/\/\/\. . . ~~~~~~. . /\/\. . . . /\/\/\/\/\. . . . . . . /\DD
DD/\/\/\/\. . ~~~~~~~~. . . . . . . . /\/\. . . . ~~~~. . /\/\DD
DD/\/\/\/\/\. . ~~~~~~~~. . ~~~~~~. . . . . . ~~~~~~~~. . /\/\DD
DD/\/\/\/\/\. . ~~~~~~~~~~~~~~~~~~~~~~. . ~~~~~~~~~~~~. . /\/\DD
DD/\/\/\/\. . . ~~~~~~~~~~~~~~~~~~~~~~~~~~~~~~~~~~~~~~~~. . /\DD
DD/\/\. . . . /\~~. . . . ~~~~~~~~~~~~~~~~~~~~~~~~~~~~~~. . /\DD
DD/\. . . . /\/\. . . . . . ~~~~~~~~~~~~~~~~~~~~~~~~~~. . . /\DD
DD/\. . . /\/\. . . /\/\/\. . ~~~~~~~~~~. . . ~~~~~~~~. . /\/\DD
DD/\/\. . /\/\. . . /\/\/\/\. . ~~~~~~. . . . . /\/\. . /\/\/\DD
DD/\/\. . /\/\. . . /\/\/\/\. . ~~~~. . . /\. . . . . . /\/\/\DD
DD/\/\. . . /\. . . /\/\/\/\. . ~~~~. . /\/\/\. . . . . /\/\/\DD
DD/\/\. . . . . . /\/\/\/\/\. . ~~~~. . /\/\/\/\. . . /\/\/\/\DD
DD/\/\/\. . . . /\/\/\/\/\/\/\. . ~~~~. . /\/\/\/\/\/\/\/\/\/\DD
DD/\/\/\/\/\/\/\/\/\/\/\/\/\/\. . ~~~~. . /\/\/\/\/\/\/\/\/\/\DD
DD/\/\/\/\/\/\/\/\/\/\/\/\/\/\. . ~~~~~~. . /\/\/\/\/\/\/\/\/\DD
DD/\/\/\. . /\/\/\/\/\/\/\/\/\. . ~~~~~~. . /\/\/\/\/\/\/\/\/\DD
DD/\/\. . . . /\/\/\/\/\/\/\. . . ~~~~~~~~. . /\/\/\/\/\/\/\/\DD
DD/\/\. . . . . /\/\/\/\/\/\. . . ~~~~~~~~. . /\/\/\/\/\/\/\/\DD
DD/\/\. . . . . . /\/\/\/\/\/\. . . ~~~~~~~~. . /\/\/\/\/\/\/\DD
DD/\/\. . . . . . . . . . /\/\/\. . . ~~~~~~. . . /\/\/\/\/\/\DD
DD/\/\. . . . . . . . . . . /\/\/\. . ~~~~~~. . . . . . /\/\/\DD
DD/\/\. . . . . . /\/\. . . . /\. . . . ~~. . . . . . . . /\/\DD
DD/\/\/\. . /\/\/\/\/\/\. . . . . . . . . . . . . . /\. . /\/\DD
DD/\/\/\/\/\/\/\/\/\/\/\. . . . . . . . . ~~~~~~. . . . . /\/\DD
DD/\/\/\/\/\/\/\/\/\/\/\. . ~~~~~~~~. . ~~~~~~~~~~. . . . /\/\DD
DD/\/\/\/\/\/\/\/\/\/\/\. . ~~~~~~~~. . ~~~~~~~~~~~~. . . . /\DD
DD/\/\/\/\/\/\/\/\/\/\/\. . ~~~~~~~~. . ~~~~~~~~~~~~. . . . /\DD
DD/\/\/\/\/\. . . /\/\. . . ~~~~~~~~. . ~~~~~~~~~~. . . . . /\DD
DD/\/\/\/\. . . . . . . . ~~~~~~~~~~~~. . ~~~~. . . ~~. . . /\DD
DD/\/\/\/\. . . . . . . ~~~~~~~~~~~~~~~~. . . . . ~~~~~~. . /\DD
DD/\/\/\. . ~~~~~~~~. . ~~~~~~~~~~~~~~~~~~. . ~~~~~~~~~~. . /\DD
DD/\/\/\. . ~~~~~~~~. . . ~~~~~~~~~~~~~~~~~~~~~~~~~~~~~~. . /\DD
DD/\/\. . ~~~~~~~~. . . . . ~~~~~~~~~~~~~~~~~~~~~~~~~~~~. . /\DD
DD/\/\. . ~~~~~~. . ~~~~~~. . ~~~~~~~~~~~~~~~~~~~~~~~~~~. . /\DD
DD/\/\. . ~~~~. . ~~~~~~~~~~. . ~~~~~~~~~~~~~~~~~~~~~~. . /\/\DD
DD/\/\. . ~~~~. . ~~~~~~~~~~. . . . . ~~~~~~~~~~~~~~~~. . /\/\DD
DD/\/\/\. . ~~. . ~~~~~~~~~~. . . . . . . ~~~~~~~~~~~~. . /\/\DD
DD/\/\/\. . ~~~~. . ~~~~~~~~~~. . ~~~~. . . . ~~~~~~~~. . /\/\DD
DD/\/\/\. . ~~~~. . ~~~~~~~~~~~~~~~~~~~~~~. . . ~~~~~~. . /\/\DD
DD/\/\. . . ~~~~~~. . ~~~~~~~~~~~~~~~~~~~~~~. . ~~~~~~. . /\/\DD
DD/\/\. . . . ~~~~. . . ~~~~~~~~~~~~~~~~~~~~~~. . ~~~~. . /\/\DD
DD/\/\/\. . . . . . . . . . . . . ~~~~~~~~~~~~. . . . . /\/\/\DD
DD/\/\/\/\/\/\. . . . . . . . . . . ~~~~~~~~~~. . . . . /\/\/\DD
DD/\/\/\/\/\/\/\/\. . . ~~~~~~. . . ~~~~~~~~~~. . . . /\/\/\/\DD
DD/\/\/\/\/\/\/\/\/\. . ~~~~~~. . . ~~~~~~~~. . . . . /\/\/\/\DD
DD/\/\/\/\/\/\/\/\/\. . ~~~~~~. . ~~~~~~~~. . . . . /\/\/\/\/\DD
DD/\/\/\. . . /\/\/\. . ~~~~. . ~~~~~~~~. . . . . /\/\/\/\/\/\DD
DD/\/\. . . . . /\/\/\. . . . . ~~~~~~. . . . . . /\/\/\/\/\/\DD
DD/\/\. . . . . /\/\/\. . . . . ~~~~~~. . . ~~~~. . /\/\/\/\/\DD
DD/\/\. . . . . . . . . . ~~. . ~~~~~~~~. . ~~. . . /\/\/\/\/\DD
DD/\/\. . . . . . . . . ~~~~~~. . ~~~~. . . . . . . /\/\/\/\/\DD
DD/\/\/\. . . . . . . ~~~~~~~~. . . . . . . . . . /\/\/\/\/\/\DD
DD/\/\/\/\. . . ~~~~~~~~~~~~~~~~. . . . . . /\/\/\/\/\/\/\/\/\DD
DD/\/\/\/\/\. . . ~~~~~~~~~~~~~~~~. . . . /\/\/\/\/\/\/\/\/\/\DD
DD/\/\/\/\/\/\. . ~~~~~~~~~~~~~~~~~~. . . /\/\/\/\/\/\/\/\/\/\DD
DD/\/\/\/\/\/\/\. . ~~~~~~~~~~~~~~~~. . . /\/\/\/\/\/\/\/\/\/\DD
DD/\/\. . /\/\/\. . ~~~~~~~~~~~~~~~~~~. . . . /\/\/\/\/\/\/\/\DD
DD/\. . . . . . . . ~~~~~~~~~~~~~~~~~~~~. . . /\/\/\/\/\/\/\/\DD
DD/\. . . . . . . . ~~~~~~~~~~~~~~~~~~~~. . . /\/\/\/\/\/\/\/\DD
DD/\/\. . . . . . . ~~~~~~~~~~~~~~~~~~~~. . . /\/\/\. . /\/\/\DD
DD/\/\. . /\/\. . . . ~~~~~~~~~~~~~~~~~~. . . . /\. . . . /\/\DD
DD/\/\. . /\/\. . . . . ~~~~~~~~~~~~~~~~/\. . . . . . . . /\/\DD
DD/\/\. . /\/\. . . . . . ~~~~~~~~~~~~~~/\/\. . . . . . . /\/\DD
DD/\/\. . /\/\. . . . . . ~~~~~~~~~~~~~~/\/\. . . . . . . /\/\DD
DD/\. . . /\/\. . . /\/\. . /\/\/\/\/\/\/\. . . . . . . . /\/\DD
DD/\. . . . . . . . /\/\. . . . /\/\/\/\. . . /\/\. . . . /\/\DD
DD/\/\. . . . . . . /\/\/\. . . . . . . . . /\/\/\/\. dn/\/\/\DD
DD/\/\/\/\/\/\. . /\/\/\/\/\/\/\. . . . . /\/\/\/\/\/\/\/\/\/\DD
DD/\/\/\/\/\/\/\/\/\/\/\/\/\/\/\/\/\/\/\/\/\/\/\/\/\/\/\/\/\/\DD
<z>-40</z> <x>98</x> <y>115</y> <n>Level -2 -40'</n>
/\/\/\/\/\/\/\/\/\/\/\/\/\/\/\/\/\/\/\/\/\/\/\/\/\/\/\/\/\/\DD
/\/\/\/\/\/\/\/\/\/\dn. . /\/\/\/\/\/\/\/\/\/\/\/\/\/\/\/\/\DD
/\/\/\/\/\/\/\/\/\. . . . . /\/\/\/\/\/\/\/\/\/\/\/\/\/\/\/\DD
/\/\/\. . . /\/\. . . . . . . /\/\/\/\/\. . /\/\/\/\/\/\/\/\DD
/\/\. . . . . . . . /\/\. . . . . . . . . . . /\/\/\/\/\/\/\DD
/\. . . /\/\. . . /\. . . . . . . . . . . . . /\/\/\/\/\/\/\DD
/\. . . /\/\/\/\/\/\. . . . . . . . . . . . . . /\/\/\/\/\/\DD
/\. . . /\/\/\/\/\. . /\/\/\/\/\/\/\/\/\. . . . . /\/\/\/\/\DD
/\/\. . . /\/\/\. . /\/\/\/\/\/\/\/\/\/\/\. . . . /\/\/\/\/\DD
/\/\/\. . /\/\/\. . /\/\/\/\/\/\/\/\/\/\/\. . . . . /\/\/\/\DD
/\/\/\/\. . /\/\. . /\/\/\/\/\/\/\/\/\/\/\. . . . . /\/\/\/\DD
/\/\/\/\. . . . . . /\/\/\/\/\/\/\/\/\/\/\. . . . /\/\/\/\/\DD
/\/\/\/\. . . . . /\/\/\/\/\. . /\/\/\/\/\/\. . /\/\/\/\/\/\DD
/\/\/\. . . . . /\/\/\/\/\. . . . . /\/\/\/\/\/\/\/\/\/\/\/\DD
/\/\/\. . . . /\/\/\/\/\/\. . . . . . /\/\/\/\/\/\/\/\/\/\/\DD
/\/\. . . . /\/\/\/\/\/\/\. . /\/\. . . . /\/\/\/\/\/\/\/\/\DD
/\. . . . . /\/\/\/\/\/\/\. . . /\/\/\. . . /\/\/\/\/\/\/\/\DD
/\. . . . . /\/\/\/\/\/\. . . . . /\/\/\. . . /\/\/\/\/\/\/\DD
/\/\. . . . . /\/\/\/\. . . . . . . /\/\/\. . /\/\/\/\/\/\/\DD
/\/\. . . . . . . . . . . . . /\/\. . /\/\. . . /\/\/\/\/\/\DD
/\/\/\. . . . . . . . . . . /\/\/\/\. . /\/\. . . . . /\/\/\DD
/\/\/\. . . . . . . . . . . /\/\/\/\. . /\/\/\. . . . . /\/\DD
/\/\/\/\. . . /\/\/\. . . . . /\/\. . /\/\/\/\/\. . . /\/\/\DD
/\/\/\/\/\/\/\/\/\/\/\. . . . . . . /\/\/\/\/\/\. . /\/\/\/\DD
/\/\/\/\/\/\/\/\/\/\/\/\. . . . . /\/\/\/\/\/\. . /\/\/\/\/\DD
/\/\/\/\/\/\/\/\/\/\/\/\/\. . . /\/\/\/\/\/\/\. . /\/\/\/\/\DD
/\/\/\/\/\/\/\/\/\/\/\/\/\. . /\/\/\/\/\/\/\/\/\. . /\/\/\/\DD
/\/\/\/\/\/\/\/\/\/\/\/\/\. . /\/\/\/\/\/\/\/\/\. . . /\/\/\DD
/\/\/\/\/\/\/\/\/\/\/\/\/\. . /\/\/\/\/\. . . /\. . . /\/\/\DD
/\/\/\/\/\/\/\. . . /\/\/\. . . /\/\/\. . . . . . . . /\/\/\DD
/\/\/\/\/\/\. . . . . . . . . . /\/\. . . . . . . . . . /\/\DD
/\/\/\/\/\. . . /\/\. . . . . /\/\/\. . /\/\/\. . . . . /\/\DD
/\/\/\/\. . . /\/\/\/\/\. . /\/\/\/\. . /\/\/\. . . . . /\/\DD
/\/\/\. . . /\/\/\/\/\/\/\/\/\/\/\/\. . /\/\/\/\. . . . /\/\DD
/\/\. . . /\/\/\/\/\/\/\/\/\/\/\/\/\. . /\/\/\/\/\. . . /\/\DD
/\/\. . . . . . . . /\/\/\/\/\/\/\/\. . /\/\/\/\/\. . . /\/\DD
/\/\. . . . . . . . . /\/\/\/\/\/\/\. . /\/\/\/\/\. . . /\/\DD
/\/\. . . . /\/\/\/\. . /\/\/\/\/\/\/\. . /\/\/\. . . . /\/\DD
/\/\. . . /\/\/\/\/\/\. . /\/\/\/\/\/\. . . . . . . . . /\/\DD
/\/\. . . /\/\/\/\/\/\. . /\/\/\/\/\/\/\. . . . . . . . /\/\DD
/\/\. . . /\/\/\/\/\/\. . /\/\/\/\/\/\/\/\. . /\/\/\. . /\/\DD
/\/\. . . /\/\/\/\/\. . /\/\/\/\/\/\/\/\/\/\/\/\/\/\. . /\/\DD
/\/\. . . . /\/\/\/\. . /\/\/\/\/\/\/\/\/\/\/\/\/\/\. . /\/\DD
/\/\. . . . /\/\/\. . /\/\/\/\/\/\/\/\/\/\/\/\/\/\. . . /\/\DD
/\/\. . . . . /\. . . /\/\. . . /\/\/\/\/\/\. . . . . /\/\/\DD
/\/\. . . . . . . . . . . . . . . . . . . . . . . . /\/\/\/\DD
/\/\/\. . . . . . . . . . /\/\/\. . . . . . /\/\/\/\/\/\/\/\DD
/\/\/\/\. . . . /\. . . /\/\/\/\/\/\/\/\/\/\/\/\/\/\/\/\/\/\DD
/\/\/\/\/\. . /\/\. . /\/\/\/\/\/\/\/\/\/\/\/\/\/\/\/\/\/\/\DD
/\/\/\/\/\/\. . /\. . /\/\/\/\/\/\/\/\/\/\/\/\/\/\. . /\/\/\DD
/\/\/\/\/\/\. . /\/\. . /\/\/\/\/\/\/\. . /\/\/\. . . . /\/\DD
/\/\/\/\/\/\. . /\/\. . . /\/\/\/\/\. . . . . . . . . . /\/\DD
/\/\/\/\/\/\. . /\/\/\. . . /\/\/\. . . . . . . . . . /\/\/\DD
/\/\/\/\/\. . /\/\/\/\/\. . . . . . . /\/\. . . . /\/\/\/\/\DD
/\/\/\. . . /\/\/\/\/\/\/\/\. . . . . . . . . . /\/\/\/\/\/\DD
/\/\. . . /\/\/\/\/\/\/\/\/\. . . . . . . . . /\/\/\/\/\/\/\DD
/\/\. . /\/\/\/\/\/\/\/\/\. . . . . . . /\/\/\/\/\/\/\/\/\/\DD
/\/\. . /\/\/\/\/\/\/\/\. . . . . /\/\/\/\/\/\/\/\/\/\/\/\/\DD
/\/\/\. . /\/\/\/\/\/\. . /\/\/\/\/\/\/\/\/\/\/\/\/\/\/\/\/\DD
/\/\/\. . /\/\/\/\/\. . /\/\/\/\/\/\/\/\/\/\/\/\/\/\/\/\/\/\DD
/\/\/\. . /\/\/\/\/\. . /\/\/\/\/\/\/\/\/\/\/\/\/\/\/\/\/\/\DD
/\/\/\/\. . /\/\/\/\/\. . /\/\/\/\/\/\/\. . . /\/\/\/\/\/\/\DD
/\/\/\/\. . /\/\/\/\/\/\. . . . . . . . . . . . /\/\/\/\/\/\DD
/\/\/\/\. . /\/\/\/\/\/\/\. . . . . . . /\/\. . . . /\/\/\/\DD
/\/\/\/\. . /\/\/\/\/\/\/\/\/\/\/\/\/\/\/\/\/\/\. . . /\/\/\DD
/\/\/\/\. . /\/\/\/\/\/\/\/\/\/\/\/\/\/\/\/\/\/\/\. . . /\/\DD
/\/\/\/\. . . /\/\/\/\/\/\/\/\/\/\/\/\. . /\/\/\/\/\. . /\/\DD
/\/\/\/\/\. . /\/\/\/\/\/\/\/\/\/\. . . . . /\/\/\/\. . /\/\DD
/\/\/\/\/\/\. . /\/\/\/\/\/\/\/\. . . /\/\. . . /\. . . /\/\DD
/\/\/\/\/\/\. . /\/\/\/\/\/\/\. . . /\/\/\/\. . . . . /\/\/\DD
/\/\/\/\/\. . . . /\/\/\/\/\/\. . /\/\/\/\/\. . . . /\/\/\/\DD
/\/\/\/\/\. . . . . /\/\/\/\/\. . /\/\/\/\/\/\. . /\/\/\/\/\DD
/\/\/\/\. . . /\/\. . /\/\/\/\. . . /\/\/\/\/\. . /\/\/\/\/\DD
/\/\/\/\. . /\/\/\/\. . /\/\/\/\. . . . /\/\. . . . /\/\/\/\DD
/\/\/\/\/\/\/\/\/\/\. . . /\/\/\. . . . . . . . . . . /\/\/\DD
/\/\/\/\/\/\/\/\/\/\/\. . . /\/\. . . . . . . . . . . . /\/\DD
/\/\/\/\/\/\/\/\/\/\/\/\. . . . . . . . . . . . . . . . /\/\DD
/\/\/\/\/\/\/\/\/\/\/\/\/\/\. . . /\/\/\/\/\. . . . . up/\/\DD
/\/\/\/\/\/\/\/\/\/\/\/\/\/\/\/\/\/\/\/\/\/\/\. . . /\/\/\/\DD
/\/\/\/\/\/\/\/\/\/\/\/\/\/\/\/\/\/\/\/\/\/\/\/\/\/\/\/\/\/\DD
<z>-60</z> <x>98</x> <y>115</y> <n>Level -3 -60'</n>
/\/\/\/\/\/\/\/\/\/\/\/\/\/\/\/\/\/\/\/\/\/\/\/\/\/\/\/\/\/\
/\/\/\/\/\/\/\/\/\/\up/\/\/\/\/\/\/\/\/\/\/\/\/\/\/\/\/\/\/\
/\/\/\/\/\/\/\/\/\/\. /\/\/\/\/\/\/\/\/\/\/\/\. . . . /\/\/\
/\/\/\/\/\/\/\/\/\/\. . . /\/\/\/\/\/\/\/\/\. . . . . . /\/\
/\/\/\/\/\/\/\/\/\/\/\/\. /\/\/\/\/\/\/\/\. . . /\/\. . . /\
/\/\. . . . . /\. . /\/\. /\/\/\/\/\/\/\/\. . /\/\/\. . . /\
/\. . . . . . . /\. /\/\. /\/\/\/\/\/\/\. . /\/\/\/\. . /\/\
/\. . . /\/\. . /\/\. . /\/\/\/\/\/\/\. . . /\/\/\/\. . /\/\
/\. . /\/\/\/\. . /\/\/\/\/\/\/\/\/\. . . /\/\/\/\/\. . /\/\
/\/\. . /\/\/\. . /\/\/\/\/\/\/\/\/\. . /\/\/\/\/\/\. . /\/\
/\/\. . /\/\/\. . /\/\/\/\/\/\/\/\/\. . /\/\/\/\/\/\. . /\/\
/\/\. . /\/\/\/\. . /\/\/\/\/\/\/\. . /\/\/\/\/\/\/\. . /\/\
/\/\. . /\/\/\/\. . . /\/\/\. . . . /\/\/\/\/\/\/\. . /\/\/\
/\/\. . . /\/\/\/\. . . . . . . . /\/\/\/\/\/\/\/\. . /\/\/\
/\. . . . . /\/\/\/\. . . . . . . /\/\/\/\/\/\/\/\/\. . /\/\
/\. . . . . . /\/\/\/\. . . . . . /\/\/\/\/\/\/\/\/\. . . /\
/\/\. . /\/\. . /\/\. . . /\/\/\. . /\/\/\/\/\/\/\/\. . . /\
/\/\/\/\/\/\/\. . . . . /\/\/\/\/\. . /\/\/\/\/\/\/\. . /\/\
/\/\/\/\/\/\/\. . . . /\/\/\/\/\/\. . /\/\/\/\/\/\. . /\/\/\
/\/\/\/\/\/\/\/\. . . /\/\/\/\/\. . . /\/\/\/\/\/\. . /\/\/\
/\/\/\/\/\/\/\/\. . . /\/\/\/\/\. . . /\/\/\/\/\. . . /\/\/\
/\/\/\/\/\/\/\/\. . . . /\/\/\/\/\. . . . /\/\/\. . /\/\/\/\
/\/\/\/\/\/\/\/\. . . . . /\/\/\/\/\. . . . . . . /\/\/\/\/\
/\/\/\/\/\/\/\. . . /\. . . /\/\/\/\/\/\. . . . . /\/\/\/\/\
/\/\/\/\/\. . . /\/\/\/\. . . /\/\/\/\/\. . . . . /\/\/\/\/\
/\/\/\/\. . . /\/\/\/\/\/\. . . . . /\/\. . . . . . /\/\/\/\
/\/\/\. . . /\/\/\/\/\/\/\/\/\. . . . . . /\/\/\. . . /\/\/\
/\/\. . . /\/\/\/\/\/\/\/\/\/\. . . . . . /\/\/\/\. . /\/\/\
/\/\. . /\/\/\/\/\/\/\/\/\/\/\. . . . . /\/\/\/\/\. . /\/\/\
/\/\. . /\/\/\/\/\/\/\/\/\/\. . /\/\. . . /\/\/\/\. . /\/\/\
/\/\/\. . /\/\/\/\/\/\/\/\. . /\/\/\/\. . . /\/\/\. . /\/\/\
/\/\/\. . /\/\/\/\/\/\/\/\. . /\/\/\/\/\. . . /\/\/\. . /\/\
/\/\/\/\. . /\/\/\/\/\/\/\. . /\/\/\/\/\/\. . . /\/\. . /\/\
/\/\/\/\. . /\/\/\/\/\/\/\. . /\/\/\/\/\/\/\. . . . . . /\/\
/\/\/\. . /\/\/\/\/\/\/\/\. . /\/\/\/\/\/\/\/\. . . . . /\/\
/\/\. . . /\/\/\/\/\/\/\/\/\. . /\/\/\/\/\/\/\. . . . . /\/\
/\/\. . /\/\/\/\/\/\/\/\/\/\. . /\/\/\/\/\/\/\. . . . . /\/\
/\/\. . /\/\/\/\/\/\/\/\/\/\/\. . /\/\/\/\. . . . . . . /\/\
/\/\/\. . /\/\/\/\/\/\/\/\/\/\/\. . . . . . . . /\/\. . /\/\
/\/\/\. . /\/\/\/\/\/\/\/\/\/\/\. . . . . /\/\/\/\/\. . /\/\
/\/\/\/\. . /\/\/\/\/\/\/\/\/\. . . . /\/\/\/\/\/\/\. . /\/\
/\/\/\/\. . /\/\/\/\/\/\/\/\. . . . /\/\/\/\/\/\/\/\. . /\/\
/\/\/\/\. . /\/\/\/\/\/\/\. . /\/\. . /\/\/\/\/\/\/\. . /\/\
/\/\/\/\. . /\/\/\/\/\/\. . /\/\/\/\. . /\/\/\. . . . . /\/\
/\/\/\/\. . /\/\/\/\/\/\. . /\/\/\/\. . . . . . . . . . /\/\
/\/\/\. . /\/\/\/\/\/\/\. . /\/\/\/\. . . . . /\/\. . /\/\/\
/\/\. . . /\/\/\/\/\/\/\/\. . /\/\/\. . . . /\/\/\/\/\/\/\/\
/\/\. . . /\/\/\/\/\/\/\/\. . /\/\/\/\. . /\/\/\/\/\/\/\/\/\
/\/\. . . /\/\. . . . /\/\. . . /\/\/\/\/\/\/\/\/\/\/\/\/\/\
/\/\/\. . . . . . . . . /\/\. . /\/\/\/\/\/\/\/\/\/\/\/\/\/\
/\/\/\/\. . . /\/\/\/\. . . . . . /\/\/\/\/\/\/\/\/\/\/\/\/\
/\/\/\/\/\/\/\/\/\/\/\/\. . /\. . /\/\/\/\/\/\/\/\/\/\/\/\/\
/\/\/\/\/\/\/\/\/\/\/\/\. . /\/\. . /\/\/\/\/\/\/\/\/\/\/\/\
/\/\/\/\/\/\/\/\/\/\/\. . /\/\/\. . . . . . /\/\/\/\/\/\/\/\
/\/\/\/\/\/\/\. . . . . . /\/\. . . . . . . . /\/\/\/\/\/\/\
/\/\/\/\/\/\. . . . . /\/\. . . . . . . . . . . /\/\/\/\/\/\
/\/\/\/\/\. . . /\/\/\/\/\. . /\/\/\/\. . . . . . . /\/\/\/\
/\/\/\/\. . . /\/\/\/\/\. . /\/\/\/\/\/\. . /\/\. . . /\/\/\
/\/\/\/\. . . /\/\/\/\/\. . /\/\/\/\/\/\. . /\/\/\. . /\/\/\
/\/\/\/\/\. . /\/\/\/\/\/\. . /\/\/\/\/\. . . /\/\. . /\/\/\
/\/\/\/\/\. . /\/\/\/\/\/\/\. . . . /\/\. . . /\/\/\. . /\/\
/\/\/\/\. . . /\. . /\/\/\/\/\. . . . . . . /\/\/\/\. . . /\
/\/\/\. . . . . . . . . /\/\/\/\. . . . . /\/\/\/\/\/\. . /\
/\/\. . . . . . . . . . . /\/\/\. . . . . /\/\. . /\/\. . /\
/\/\. . /\/\. . . /\/\. . . . . . . . . . . . . . . . . . /\
/\/\. . /\/\. . . /\/\/\. . . . /\/\/\. . . . . . . . . . /\
/\/\. . /\/\/\. . . /\/\. . . /\/\/\/\/\. . . /\. . . . . /\
/\/\. . /\/\/\/\. . . /\/\. . /\/\/\/\/\. . . . . . . . /\/\
/\/\/\. . /\/\/\/\. . /\/\. . . /\/\/\. . . . . . . . . /\/\
/\/\/\. . /\/\/\/\. . /\/\/\. . . . . . . . . . . . . . /\/\
/\/\/\. . /\/\/\/\. . /\/\/\. . . . . . . . /\/\/\. . . /\/\
/\/\/\. . /\/\/\/\. . . /\. . . . . . . . . /\/\/\. . /\/\/\
/\/\. . /\/\/\/\/\/\. . . . . . . . . . . . . /\/\. . /\/\/\
/\/\. . /\/\/\/\/\/\. . . . . . . . /\/\/\. . /\/\. . /\/\/\
/\/\. . /\/\/\/\/\/\. . . /\/\/\/\/\/\/\/\. . /\/\/\. . /\/\
/\. . . /\/\/\/\/\/\. . /\/\/\/\/\/\/\/\/\. . . /\. . . /\/\
/\. . . . . . /\/\. . /\/\/\/\/\/\/\/\/\/\/\. . . . . . /\/\
/\/\. . . . . . . . . /\/\/\/\/\/\/\/\/\/\/\/\. . . . /\/\/\
/\/\/\/\/\/\/\. . . /\/\/\/\/\/\/\/\/\/\/\/\/\/\/\/\/\/\/\/\
/\/\/\/\/\/\/\/\/\/\/\/\/\/\/\/\/\/\/\/\/\/\/\/\/\/\/\/\/\/\
<z>-500</z> <x>139</x> <y>129</y> <n>Hades -500'</n>
/\/\/\/\/\/\/\/\/\/\/\/\/\/\/\/\/\/\/\/\/\/\/\/\/\/\/\/\/\/\/\/\/\/\/\/\/\/\/\/\/\/\/\/\/\/\/\/\/\/\/\/\/\/\/\/\/\/\/\/\/\/\/\/\/\/\/\/\/\/\/\/\/\/\/\/\/\/\/\/\
/\/\/\/\/\/\/\/\/\/\/\/\/\/\/\/\/\/\/\. . . . /\/\/\/\/\/\/\********/\/\/\/\/\/\/\/\/\/\/\/\/\/\/\/\/\/\/\/\/\/\/\/\/\/\/\/\. . . /\/\/\. . pb/\/\/\/\/\/\/\/\/\
/\/\/\/\/\/\/\/\/\. . . /\/\/\/\/\. . . . . . . . /\/\/\/\**DD. DD. DD. **/\/\/\/\/\/\/\/\/\/\/\/\/\/\/\/\/\/\/\/\/\/\/\/\/\. . . . . . . . . . /\/\/\/\/\/\/\/\
/\/\/\/\/\/\/\/\. . . . . . . . . . . /\/\. . . . . /\/\/\**MM. . . . . . **/\/\/\/\/\/\/\/\/\/\/\/\. . . /\/\/\/\/\/\/\/\/\. . . . . . /\/\. . . /\/\/\/\/\/\/\
/\/\/\. . . . . . . . . . . . . . /\/\/\. . . . . . . /\/\**MM. . . . . . . DD. DD. DD/\/\/\/\/\/\/\. . . /\/\/\/\/\/\/\/\/\/\. . . . . /\/\/\. . . /\/\/\/\/\/\
/\/\. . . . . . . /\/\. . . . . . . /\/\. . . . . . . /\/\**DD. DD. DD/\. . . . ::. . **/\/\/\/\/\/\. . . /\/\/\/\/\/\/\/\/\/\/\/\. . . . /\. . . . . . . /\/\/\
/\. . . . . . . /\/\/\. . . . . . . . . . . . . . . . /\/\/\********/\/\/\. DD**~~**DD****/\/\/\/\. . . . /\/\/\/\/\/\/\/\/\/\/\/\/\/\. . . . . . . . . . . /\/\
/\. . . . . . . /\/\. . . . /\/\/\/\. . . . . . . . . /\/\/\/\****/\/\/\/\. . . ::. . ****/\/\/\. . . . . /\/\/\/\/\/\. . /\/\/\/\/\/\/\. . . . /\/\/\. . . /\/\
/\/\. . . . . . . . . . . /\/\/\/\/\/\. . **********. . /\/\/\/\/\/\/\/\/\. DD. DD. DD**/\/\/\. . . . . . . /\/\/\/\. . . . /\/\/\/\/\/\. . . . . /\/\/\. . /\/\
/\/\. . . /\/\. . . . . . . /\/\/\/\/\. . **********. . . . . /\/\/\/\****. . . . . . /\/\/\/\. . . /\/\. . . /\/\/\. . . . /\/\/\/\/\/\. . . . . . /\/\. . . /\
/\/\/\/\/\/\/\/\. . . /\. . . /\/\/\. . **************/\. . . . /\/\/\**/\/\DD. DD. DD/\/\/\/\. . . /\/\/\. . . /\/\. . . . . /\/\/\/\/\/\/\. . . . /\/\. . . /\
/\/\/\/\/\/\/\/\/\. . . . . . . . . . . **********. . . /\. . . /\/\****/\/\********/\/\/\/\/\. . . /\/\/\/\. . /\/\/\. . . . . . /\/\/\/\/\/\. . . . . . . /\/\
/\/\/\/\/\/\/\/\/\/\. . . . . . . . ************. . . . . . . /\/\****/\/\/\/\****/\/\/\/\/\/\/\. . /\/\/\/\. . /\/\/\. . /\. . . . /\/\/\/\/\. . . . . . . /\/\
/\/\/\/\/\/\/\/\/\/\/\/\. . . ****************. . . /\/\. . /\/\/\**/\/\/\/\/\/\/\/\/\/\/\/\/\/\. . /\/\/\/\. . /\/\/\. . /\/\/\. . . /\/\/\. . . . . . . /\/\/\
/\/\/\/\/\/\/\/\/\/\/\/\/\. . ****************. . /\/\/\/\/\/\/\****/\/\/\/\/\/\/\/\/\/\/\/\/\. . . . /\/\. . . . /\. . . . . /\. . . . . . . . . . . . /\/\/\/\
/\/\/\/\/\/\/\/\/\/\/\/\/\. . **************. . /\/\/\/\/\/\******/\/\/\/\/\/\/\/\/\/\/\/\/\. . . . . . . . . . . . . . . . . . . . . . . . . . . . . /\/\/\/\/\
/\/\/\/\/\/\/\/\/\/\/\/\. . . ************. . . ************/\/\/\/\/\/\/\/\/\/\/\/\/\/\/\. . . **. . . . . . . . . . . **. . . . . . . . **. . . . . /\/\/\/\/\
/\/\/\/\/\/\/\/\/\/\/\. . . . . ******. . . . ************/\/\/\/\/\/\/\/\. . . . . . . . . . . . . . ******. . . . . ******. . . ****. . **. . . . . . /\/\/\/\
/\/\/\. . . /\/\/\/\. . . . . . . /\. . . . ********/\/\/\/\/\/\/\/\/\. . . . . . . . . . . . . . . **********. . . . ****. . . . . . . . . . . **. . . . . /\/\
/\/\. . . . . . . . . . . . . . . . . . ************/\/\/\. . /\/\/\. . . . ********. . . ******. . **********. . . . . . . . **. . . . . . . . **. . . . . . /\
/\/\. . /\. . . . . . . . . . /\. . . /\/\**********. . . . . . . . . . . . **********. . . **. . . . ******. . . . . . . **********. . . . . . . . . ****. . /\
/\/\. . . . . **********. . . . . . . /\/\/\******. . . . . . . . . . . . . ********. . . . . . . . . . . . . . . . . . . . . . . . . . ****. . . . . **. . /\/\
/\/\/\. . . . **********. . . . . . . /\/\/\**. . . . ****. . . . . . . . . . . . . . . . . . . . . . . . . . . . /\/\/\. . . . . . . ********. . . . . . . /\/\
/\/\/\. . . . . ********. . . . . . /\/\/\/\. . . . ********. . . . . . . . . . . . . /\/\/\. . . . . . . . . . /\/\/\/\. . . **. . . ********. . . . . . . /\/\
/\/\/\/\. . . . . ****. . . . . /\/\/\/\/\. . . . . **********. . . . . . /\/\/\/\/\/\/\/\/\. . . . . . /\/\/\/\/\/\/\/\. . ******. . . ****. . . /\/\. . . /\/\
/\/\/\/\/\/\/\. . . . . . . /\/\/\/\/\/\/\. . . . **************. . . . . . . /\/\/\/\/\/\/\/\. . . . /\/\/\/\/\/\/\/\. . . . . . . . . . . . . . /\/\/\/\/\/\/\
/\/\/\/\/\/\/\. . . . . . /\/\/\/\/\/\/\/\/\. . ****************. . **. . . . . . /\. . . /\/\/\/\. . /\/\/\/\/\/\/\/\. . . . . . . . . . . **. . /\/\/\/\/\/\/\
/\/\. . . . /\. . /\. . /\/\/\/\/\/\/\/\/\/\/\/\/\. . ******/\/\. . /\. . ****. . . . . . . /\/\/\/\. . /\/\/\/\/\/\. . . /\. . . /\/\/\. . . . . /\/\/\/\/\/\/\
/\. . . . . . . /\/\/\/\/\/\/\/\/\/\/\/\/\/\/\/\. . . . . /\/\. . /\. . ********. . . **. . . /\/\/\. . . /\/\/\/\. . . /\. . . /\/\/\/\/\. . . /\/\/\/\/\/\/\/\
/\. . . . . . . . /\/\/\/\/\/\/\/\/\/\/\/\/\. . . . **. . . . . . **. . ********. . ******. . /\/\/\/\. . /\/\/\. . . /\. . . /\/\/\/\/\/\. . . /\/\/\/\/\/\/\/\
/\. . . . . . . . . /\/\/\/\/\. . . /\/\/\. . . **********. . ********. . ****. . . ******. . . . . . . . /\/\/\. . . . . . /\/\/\/\/\/\. . . . . /\/\. . . /\/\
/\. . . . . ****. . . /\/\/\. . . . . . . . . . . ********************. . . . . . . . **. . . . . . . . . /\/\/\. . . . . /\/\/\/\/\/\. . . . . . . . . . . . /\
/\. . . . ******. . . /\/\/\. . . . . /\/\/\. . . . . ******************. . . . . . . . . . . /\/\/\. . . /\/\/\/\/\/\/\/\/\/\/\/\/\/\. . . . /\/\. . . . . . /\
/\. . . . . ****. . /\/\/\/\. . . . /\/\/\/\/\/\/\. . ********************. . . . . . . . . . /\/\/\. . . /\/\/\/\/\/\/\/\/\/\/\/\/\/\. . . /\/\/\/\. . . . . /\
/\. . . . . . **. . /\/\/\/\/\. . /\/\/\/\/\/\/\/\/\. . ******. . . . . . . . . . . . /\/\/\. . . . . . . /\/\/\/\/\/\/\/\/\/\/\/\/\/\. . . /\/\/\/\/\/\mmMM/\/\
/\. . . . . ******. . /\/\/\/\/\/\/\/\/\/\/\/\/\/\/\. . **. . . . . . . . . . . . . /\/\/\. . . . . . . /\/\/\/\/\/\/\/\/\/\/\/\/\/\/\/\. . /\/\/\/\/\/\/\/\/\/\
/\. . . . . . . . . . /\/\/\/\/\/\/\/\/\/\/\. /\/\/\. . . . . /\/\/\/\/\/\. . . . . . . . . . . . . . /\/\/\/\/\/\/\/\/\/\/\/\/\/\/\/\/\/\/\/\/\/\/\/\/\/\/\/\/\
/\/\. . . . . . . . /\/\/\/\/\/\/\/\/\/\/\/\/\/\/\/\/\. . . /\/\/\/\/\/\/\/\/\. . . . . . /\/\/\/\/\/\/\/\/\/\/\/\/\/\/\/\/\/\/\/\/\/\/\/\/\/\/\/\/\/\/\/\/\/\/\
/\/\/\/\/\/\/\/\/\/\/\/\/\/\/\/\/\/\/\/\/\/\/\/\/\/\/\/\/\/\/\/\/\/\/\/\/\/\/\/\/\/\/\/\/\/\/\/\/\/\/\/\/\/\/\/\/\/\/\/\/\/\/\/\/\/\/\/\/\/\/\/\/\/\/\/\/\/\/\/\
<z>-400</z> <x>114</x> <y>100</y> <n>Plain 1 -400'</n>
/\/\/\/\/\/\/\/\/\/\/\/\/\/\/\/\/\/\/\/\/\/\/\/\/\/\/\/\/\/\/\/\/\/\/\/\/\/\/\/\
/\/\/\/\/\DDDDDDDDDDDDDDDDDDDDDDDDDDDDDDDDDDDDDD/\/\/\/\/\/\/\/\/\/\/\/\/\/\/\/\
/\/\/\/\/\DD. . . . . []. . . . . []. . . . . DDDDDDDDDDDDDDDDDDDDDDDDDDDDDDDD/\
/\/\/\/\/\DD. . . . . | . . . . . . . . . . . DD. . . . DD. . . . DD. . . . DD/\
/\/\/\/\/\DD. . . . . []. . . . . []. . . . . | . . . . DD. . . . DD. . . . DD/\
DDDDDDDDDDDD. . . . . []. . . . . []. . . . . []. . . . []. . . . . . . . . DD/\
DDup. . []DD. . . . . [][][][][][][][][][]--[][]. . . . []. . . . []. . . . DD/\
DD. . . [][][][][][][][]. . . . []. . . . . [][]--[][][][]. . . . [][]--[]DDDDDD
DD. . . []. . . . . [][]. . . . []. . . . . []. . . . . []. . . . [][]. . . . DD
DD. . . []. . . . . [][]. . . . | . . . . . []. . . . . [][][][]--[][]. . . . DD
DD. . . []. . . . . [][][]--[][][][][][][][][]. . . . . [][]. . . . []. . . . DD
DD. . . | . . . . . []. []. []. . . . . . . []. . . . . [][]. . . . []--DDDDDDDD
DDDDDDDDDD. . . . . []. []. []. . . . . . . []. . . . . [][]. . . . []. DD/\/\/\
/\/\/\/\DDDD--[][][][]. []. []. . . . . . . []. . . . . [][]. . . . []. DD/\/\/\
/\/\/\/\/\DD. . . . []SD[]--[][][]. . . . [][][][][][]--[][]. . . . []. DD/\/\/\
/\/\/\/\/\DD. . . . []. . . . . [][][][][][]. . . . . . [][][]--[][][]--DDDDDD/\
/\/\/\/\/\DD. . . . | . . . . . []. . . . []. . . . . . | . . . . . []. . . DD/\
DDDDDDDDDDDD[][][][][]. . . . . []. . . . . . . . . . . []. . . . . []. . . DD/\
DD. . . []. . . . . []. . . . . []. . . . []. . . . . . []. . . . . []. . . DD/\
DD. . . | . . . . . []. . . . . | . . . . []. . . . . . []. . . . . . . . . DD/\
DD. . . []. . . . . [][]--[][][][][][][][][]. . . . . . []. . . . . []. . . DD/\
DD. . . []. . . . . | . . . [][]. . . . . [][][]--[][][][]. . . . . [][][]--DDDD
DD. . . [][][][][]--[]. . . [][]. . . . . [][]. . . . [][][][][][][][][]. . . DD
DD. . . SD. . . []. []. . . [][]. . . . . [][]. . . . []. . [][][][][][]. . . DD
DDDDDD[][][][][][]. []SD[]. [][]. . . . . [][]. . . . []. . []. . . . | . . . DD
/\DD. . . . . [][]. []. []. [][]. . . . dn[][]. . . . []. . []. . . . DD. . . DD
/\DD. . . . . [][]--[][][]. [][]--[][][][][][]. . . . []. . []. . . . DD. . . DD
/\DD. . . . . . . . . . . . . . . . []. . . SD. . . . []. . []. . . . DDDDDDDDDD
/\DDDD[][][]--[][][][][][]. . . . . []. [][][]. [][]--[]. . []. . . . DD/\/\/\/\
/\/\DD. . . . []. . . . | . . . . . [][][]. . . [][]. []. . [][]--DDDDDD/\/\/\/\
/\/\DD. . . . | . . . . []. . . . . | . | . . . [][]. []. . . []. DD/\/\/\/\/\/\
/\/\DD. . . . []. . . . [][][][][]--[][][]. . . [][]. []. . . []--DDDDDDDDDD/\/\
/\/\DD. . . . [][][][]--[][][][]. . . [][]. . . [][]--[][][][][]. . . . . DD/\/\
/\/\DD. . . . []. . []. | . . | . . . [][]. . . | . . . . . . []. . . . . DD/\/\
/\/\DD. . . . []. . []. [][][][]. . . [][]. . . []. . . . . . []. . . . . DD/\/\
/\/\DDDDDDDD[][][][][]. SD. [][]--[][][][]| [][][]. . . . . . []. . . . . DD/\/\
/\/\/\/\/\DD. . . DDDD--DDDDDD. . . DD. . . DD/\DD. . . . . . | . . . . . DD/\/\
/\/\/\/\/\DD. . . DD. . . . . . . . DD. . . DD/\DDDDDDDDDDDDDDDD. . . . . DD/\/\
/\/\/\/\/\DD. . . DD. . . . DD. . . | . . . DD/\/\/\/\/\/\/\/\DDDDDDDDDDDDDD/\/\
/\/\/\/\/\DD. . . | . . . . DDDDDDDDDD. . . DD/\/\/\/\/\/\/\/\/\/\/\/\/\/\/\/\/\
/\/\/\/\/\DDDDDDDDDDDDDDDDDDDD/\/\/\DDDDDDDDDD/\/\/\/\/\/\/\/\/\/\/\/\/\/\/\/\/\
<z>-420</z> <x>118</x> <y>100</y> <n>Plain 2 -420'</n>
/\/\/\/\/\/\/\/\/\/\/\/\/\/\/\/\/\/\/\/\/\/\/\/\/\/\/\/\/\/\/\/\/\/\/\/\/\/\/\/\
/\/\/\/\/\/\/\/\/\/\/\/\/\/\/\/\/\/\/\/\/\/\/\/\/\/\/\/\/\/\/\/\/\/\/\/\/\/\/\/\
/\/\/\/\/\/\/\/\/\/\/\/\/\/\/\/\/\/\/\/\/\/\/\/\/\/\/\/\/\/\/\/\DDDDDDDDDD/\/\/\
/\/\/\/\/\/\/\/\/\/\/\/\/\/\/\/\/\/\/\/\/\/\/\/\/\/\/\/\/\/\/\/\DD. . . DD/\/\/\
/\/\/\/\/\/\/\/\/\/\/\DDDDDDDDDD/\/\/\/\/\/\/\/\/\/\DDDDDDDDDDDDDD. . . DD/\/\/\
/\/\/\/\/\/\/\/\/\/\/\DD. . . DDDDDDDDDDDD/\/\/\/\/\DD. . . . . | . . . DD/\/\/\
DDDDDDDDDDDDDDDDDDDDDDDD. . . DD. . . . DDDDDDDDDDDDDD. . . . . DD. . . DD/\/\/\
DD. . . . . []. . . . []. . . | . . . . [][]. . . [][]. . . . . []. . . DD/\/\/\
DD. . . . . []. . . . | . . . []. . . . [][]. . . [][]--[][][][][]. . . DD/\/\/\
DD. . . . . []. . . . []. . . []. . . . [][]. . . [][]. []. . [][][]--[]DD/\/\/\
DD. . . . . | . . . . []--[][][]. . . . [][]. . . [][]. []. . []. . . . DD/\/\/\
DD. . . . . []. . . . []. []. []. . . . [][]. . . [][]. [][][][]. . . . DD/\/\/\
DD. . . . . [][][][][][]--[][][][][][]--[][][]--[][][]. | . . | . . . dnDD/\/\/\
DDDDDD[][]--[]. . . . []. . . []. . . . . []. . . . . . [][][][][]--[][]DDDDDD/\
/\DD. . . . []. . . . []. . . []. . . . . []. . . . . . []. . []. . . . . . DD/\
/\DD. . . . []. . . . []. . . []. . . . . | . . . . . . []. . []. . . . . . DD/\
/\DD. . . . []. . . . []. . . []. . . . . []. . . . . . []. . []. . . . . . DD/\
/\DD. . . . []. . . . []. . . []. . . . . [][][][][]. [][][][][]. . . . . . DD/\
DDDDDD[][][][][][][]--[]. . . [][][][][][][][][][][]. . . . . | . . . . . . DD/\
DD. . . . []. . . . . []--[][][][][][][]. . . . [][]. . . . . []. . . . . . DD/\
DD. . . . []. . . . . []. . . . . . [][]. . . . [][]. . . . . [][][]--DDDDDDDD/\
DD. . . . | . . . . . []. . . . . . [][]. . . . [][][][][]--[][]. []. DD. . . /\
DD. . . . []. . . . . []. . . . . . [][]. . . . [][]. . . . . [][][]--DDDDDDDD/\
DD. . . . []. . . . . []. . . . . . [][][]--[][][][]. . . . . | . . . . . . DD/\
DD. . . . DD. . . . . | . . . . . . []. . . . . . []. . . . . []. . . . . . DD/\
DDDDDDDD--DDDDDDDD[][][]. . . . up. . . . . . . . []. . . . . []. . . . . . DD/\
/\/\/\DD. . . . DD[][][]. [][][][][][]. . . . . . []--[][][][][]. . . . . . DD/\
/\/\/\DD. . . . | . | . . . []. . . []. . . . . . []. . . . . []. . . . . . DD/\
/\/\/\DD. . . . DD[][]. . . []. . . []. . . . . . | . . . . . [][][]. DDDDDDDD/\
/\/\/\DD. . . . DDdnSD. . . []. . . [][][][][]--[][]. . . . . []. []. DD/\/\/\/\
/\/\DDDDDDDDDD| DD[][]. . . []. . . . . . []. . . []. . . . . [][][]. DDDD/\/\/\
/\/\DD. . . . . . [][]. . . []. . . . . . SD. . . []. . . . . []. . . . DD/\/\/\
/\/\DD. . . . . . [][][][][][]. . . . . . []. . . []. . . . . . . . . . DD/\/\/\
/\/\DD. . . . . . SD. . [][][][][][][]. . [][][][][][][]. [][][]. . . . DD/\/\/\
/\/\DDDDDDDDDD. DD[]. . []. . . . . [][][][][]. . . . . . []. []. . . . DD/\/\/\
/\/\/\/\/\/\DD. DD. . . []. . . . . []. . . []. . . . . . []. []. . . . DD/\/\/\
/\/\/\/\/\DDDD. DDDDDDDDDD. . . . . DD. . . | . . . . . . DDDDDDDDDDDDDDDDDDDDDD
/\/\/\/\/\DD. . . . . . DD. . . . . | . . . DD. . . . . . DD. . . . . DD. . . DD
/\/\/\/\/\DD. . . . . . DD. . . . . DD. . . DD. . . . . . DD. . . . . | . . . DD
/\/\/\/\/\DD. . . . . . | . . . . . DD. . . DD. . . . . . | . . . . . DD. . . DD
/\/\/\/\/\DDDDDDDDDDDDDDDDDDDDDDDDDDDDDDDDDDDDDDDDDDDDDDDDDDDDDDDDDDDDDDDDDDDDDD
<z>-440</z> <x>118</x> <y>100</y> <n>Plain 3 -440'</n>
/\/\/\/\/\/\/\/\/\/\/\/\/\/\/\/\/\/\/\/\/\/\/\/\/\/\/\/\/\/\/\/\/\/\/\/\/\/\/\/\
/\/\/\DDDDDDDDDDDDDDDDDDDDDDDD/\/\/\/\/\/\/\/\/\/\/\/\/\/\/\/\/\/\/\/\/\/\/\/\/\
/\/\/\DD. . . DD. . . . . . DD/\/\/\/\/\/\/\/\/\/\/\/\/\/\/\/\/\/\/\/\/\/\/\/\/\
/\/\/\DD. . . | . . . . . . DD/\/\/\/\/\/\/\/\/\/\/\DDDDDDDDDDDDDDDD/\/\/\/\/\/\
/\/\/\DD. . . DD. . . . . . DDDDDDDDDDDDDDDDDDDDDDDDDD. . . . . . DD/\/\/\/\/\/\
/\/\/\DD. . . []. . . . . . []. . . . . . []. . . . []. . . . . . DD/\/\/\/\/\/\
/\/\/\DD. . . []. . . . . . | . . . . . . | . . . . []. . . . . . DD/\/\/\/\/\/\
/\/\/\DD[][][][]. . . . . . []. . . . . . []. . . . | . . . . . . DD/\/\/\/\/\/\
/\/\DDDD[][][][][][]--[][][][]. . . . . . []. . . . [][][][][]--DDDD/\/\/\/\/\/\
/\/\DD. . . . . [][]. . . . [][]. []. [][][]. . . . []. . . []. DD/\/\/\/\/\/\/\
/\/\DD. . . . . [][]. . . . [][]. []. []. [][][][][][]. . . []. DD/\/\/\/\/\/\/\
/\/\DD. . . . . [][]. . . . [][]. []--[][][][][][]. []. . . []--DDDDDDDDDD/\/\/\
/\/\DD. . . . . [][][][][]--[][]. . . . | . . . []. []. . . | . . . . upDD/\/\/\
/\/\DD. . . . . | . . . . . . []. . . . []. . . []. [][][][][]. . . DDDDDD/\/\/\
/\/\DDDD[]--[][][]. . . . . . []. . . . []. . . []. . . . . []. . . DD/\/\/\/\/\
/\/\DD. . . []. []. . . . . . | . . . . []. . . []. . . . . [][][]--DDDD/\/\/\/\
/\/\DD. . . [][][]. . . . . . []. . . . []. . . []. . . . . []. . . . DD/\/\/\/\
/\/\DD. . . | . | . . . . . . [][][][][][]--[][][]. . . . . []. . . . DD/\/\/\/\
/\/\DDDD--[][][][][][]--[][][][][][][][][]. []. . . . . . . []. . . . DDDDDDDDDD
/\/\DD. . . [][]. . . . [][]dn. . . . . []. [][][][][][][][][]. . . . DD. . . DD
/\/\DD. . . [][]. . . . [][]. . . . . . []--[][]. . . . . . | . . . . DD. . . DD
/\/\DD. . . [][]. . . . [][]. . . . . . | . . | . . . . . . []. . . . | . . . DD
/\/\DD. . . [][]--[][][][][]. . . . . . [][][][]. . . . . . [][][]DD--DD. . . DD
/\/\DD. . . []. . . . []. [][]. [][][][][]. . [][][][][]--[][]. . DD. DDDDDDDDDD
/\/\DDDD--[][]. . . . []. []. . . []. . . . . . []. . . . []. . . DD. DD/\/\/\/\
/\/\. DD. [][]. . . . []. []. . . []. . . . . . []. . . . []. . . DD. DD/\/\/\/\
/\DDDDDD--[][][][][]--[][][]. . . []. . . . . . []. . . . [][][][]DD--DDDDDD/\/\
/\DD. . . . . . []. . . . []. . . []. . . . . . []. . . . [][]. . . . . . DD/\/\
/\DD. . . . . . | . . . . | . . . []. . . . . . [][][]--[][][]. . . . . . DD/\/\
/\DD. . . . . . []up. . . []. . . []. . . . . . []. . . . . []. . . . . . DD/\/\
/\DD--DD[][][][][][][][][][]--[][][][][][][][][][]. . . . . []. . . . . . DD/\/\
/\DD. . . . []. . . . . []. . . []. []. . . . . []. . . . . []. . . . . . DD/\/\
/\DD. . . . []. . . . . []. . . [][][]. . . . . []. . . . . [][][]DD--DDDDDD/\/\
/\DD. . . . []. . . . . []. . . | . | . . . . . | . . . . . []. . . . . DD/\/\/\
/\DDDDDD[][][][][][][][][][][]--[][][][]| [][][][]. . . . . | . . . . . DD/\/\/\
/\/\DDDD[][][]. . . . []. . . . . . []. . . . [][][][][]DDDDDD. . . . . DD/\/\/\
/\/\DD. . . DD. . . . DD. . . . . . DD. . . . DD. . . . DD/\DD. . . . . DD/\/\/\
/\/\DD. . . DD. . . . DD. . . . . . DD. . . . | . . . . DD/\DDDDDDDDDDDDDD/\/\/\
/\/\DD. . . | . . . . DD. . . . . . | . . . . DD. . . . DD/\/\/\/\/\/\/\/\/\/\/\
/\/\DDDDDDDDDD. . . . | . . . . . . DD. . . . DDDDDDDDDDDD/\/\/\/\/\/\/\/\/\/\/\
/\/\/\/\/\/\DDDDDDDDDDDDDDDDDDDDDDDDDDDDDDDDDDDD/\/\/\/\/\/\/\/\/\/\/\/\/\/\/\/\
<z>-460</z> <x>118</x> <y>100</y> <n>Plain 4 -460'</n>
/\/\/\/\/\/\/\/\/\/\DDDDDDDDDDDD/\/\/\/\/\/\/\/\/\/\/\/\/\/\/\/\/\/\/\/\/\/\/\/\/\/\/\/\/\/\/\/\/\/\/\/\/\/\/\/\/\/\/\/\/\/\/\/\/\/\/\/\/\/\/\/\DDDDDDDDDDDD/\/\
/\/\/\/\/\DDDDDDDDDDDD. . . . DD/\/\/\/\/\/\/\/\/\/\/\/\/\/\/\/\DDDDDD/\/\/\/\/\/\/\/\/\/\/\DDDDDD/\/\/\/\/\/\/\/\/\/\/\/\/\DDDDDDDDDDDDDDDDDDDDDD. . . . DD/\/\
/\/\/\DDDDDD. . . . | . . . . DD/\/\/\/\/\/\/\/\/\/\/\/\/\/\/\/\DD. DD/\/\/\/\/\/\/\/\/\/\/\DD. DD/\/\/\/\/\/\/\/\/\/\/\/\/\DD. DD. . . . . . . | . . . . DD/\/\
/\/\/\DD. DD[][][][][]. . . . DD/\/\/\/\/\/\/\/\/\/\/\/\/\/\DDDDDD--DDDDDD/\/\/\/\/\/\/\/\/\DD. DD/\/\/\/\/\/\/\/\/\DDDDDDDDDD--DDDDDDDDDDDDDDDDDD. . . . DD/\/\
/\DDDDDD--DD. . . . [][][]--[]DDDDDD/\/\/\/\/\/\/\/\/\/\/\/\DD. . . . . DDDDDDDDDDDDDDDDDDDDDD--DDDDDDDDDDDDDDDDDDDDDD. . . . . []. . . . . . . []--DDDDDDDD/\/\
/\DD. . . DD. . . . . []. . . . . DD/\/\/\/\/\/\/\/\/\/\/\/\DD. . . . . | . . . . . . . . | . . . . | . . . . . . . | . . . . . []. . . . . . . []. DD/\/\/\/\/\
/\DD. . . DD. . . . . []. . . . . DDDDDDDDDDDDDDDDDDDDDDDDDDDD. . . . . [][][][][][][][][][]. . . . [][][][][][][][][]. . . . . [][][][][][][][][]--DDDD/\/\/\/\
/\DD. . . DD. . . . . []. . . . . | . . . . . . . . . . . . | . . . . . [][][][][][][][][][]. . . . []. . . [][][]. []. . . . . | . . . . . | . . . . DD/\/\/\/\
/\DD. . . DD[][][][][][]. . . . . [][][][][][][][][][][][][][]. . . . . [][]. . . . . . [][][][][][][][][][][]. []. []. . . . . [][][][][][][]. . . . DDDDDD/\/\
/\DD. . . | . . . . . | . . . . . []. . [][][][][][]. . . . [][][][][]--[][]. . . . . . []. [][][][]. . . . []--[][][]. . . . . []. . . . . []. . . . | . DD/\/\
/\DDDDDD--DD[][][][][][]. . . . . []. . []. . . . []. . . . . . . . []. [][]. . . . . . []. []. [][]. . . . | . . . []. [][][][][]. . . . . []. . . . DDDDDD/\/\
/\/\/\DD. DD[][][]. . [][][][][][][][][][]. . . . []. . . . [][][][][][][][]. . . . . . []. []. [][]. . . . []. . . []. []. . . . . . . . . []. . . . DD/\/\/\/\
/\/\/\DD. DD[]. []. . . . [][][]. . . . | . . . . []. . . . []. . . . . . [][][]--[][][][]. []. [][]. . . . []. . . []. []. . . . . . [][][][]--[]DDDDDD/\/\/\/\
/\/\/\DD. DD[]. []. . . . []. [][][][][][]. . . . [][][][][][]. . . . . . []. . . . . . []. []. [][]. . . . [][][]--[]. []. . . . . . []. . . . . DDDDDDDDDDDD/\
/\/\/\DD. DD[]. []. . . . []. []. . . . []. . . . | . . . | . . . . . . . []. . . . . . [][][]--[][][]--[][][]. []. []. [][]--[][][][][]. . . . . | . . . . DD/\
/\/\/\DD. DD[]. []. . . . []. []. . . . [][][][]--[][][][][]dn. . . . . . | . . . . . . | . . . . | . . . []. . []. []. [][]. . . . . | . . . . . DDDDDDDDDDDD/\
/\/\/\DD. DD[]--[][][][][][]--[][]. . . . . . []. []. . . [][][][][][][][][]. . . . . . []. . . . []. . . [][][][]. []. [][][][][][][][]. . . . . DD/\/\/\/\/\/\
/\/\/\DD. DD[]. . . . . []. . . []. . . . [][][]--[]. . . . . . . . . . . []. . . . . . []. . . . []. . . | . . []. []. []. . . . . . []--[][][][]DDDDDDDDDDDD/\
/\/\/\DD. DD[]. . . . . | . . . [][][][][][]. . . [][][][][][][][][][][][][][][][][][][][][][][][][]--[][][][][][]. []. []. . . . . . []. . . . . []. . . . DD/\
/\/\/\DD. DD[]. . . . . []. up. | . . . . | . . . | . . . . . . . . . [][]. []. . . . . . . . . | . . . []. . . []. []. [][][][][][][][]. . . . . []. . . . DD/\
/\/\/\DD. DD[]. . . . . []. . . [][][][][][]. . . [][][][][][][][][][][][]. [][][][][][][][][][][]. . . []. . . []. []. []. . . . . . | . . . . . | . . . . DD/\
/\/\/\DD. DD[]. . . . . [][][][][]. . . . []. . . []. . . . . . . . . [][]--[][][][]. . . []. . []. . . [][][][][]. []. []--[][][][][][]. . . . . []. . . . DD/\
/\/\/\DD. DD[][][][]--[][][][][][][][][]. []. . . []. . . . . . . . . []. . . . . []. . . []. . []. . . | . . . []. []. []. . . . . . [][][][][][][][][]--DDDD/\
/\/\/\DD. DD[]. . . . . []. . . . . . []. [][][][][]. . . . . . . . . []. . . . . | . . . [][][][][][]--[][][][][]. []. []. . . . . . . . . []. [][]. . . DD/\/\
/\/\/\DD. DD[]. . . . . []. . . . . . [][][][][][][][][][][][][][][][][]. . . . . []. . . | . . . . | . . . . [][]. []. []. . . . . . . . . []. [][]. . . DD/\/\
/\/\/\DD. DD[]. . . . . | . . . . . . | . SDSD. . . . . . . . . . . . | . . . . . []. . . [][][][][][]. . . . [][]. []. []. . . . . . . . . []. [][]. . . DD/\/\
/\/\/\DD. DD[]. . . . . [][][][][][]--[][][][][][][][][][][][][][][][][][][][][]--[]. . . []. . . . []. . . . [][]. []. []. . . . . . . . . []. [][]. . . DD/\/\
/\/\/\DD--DD[][][][][][][]. []. . . . . | . . . . | . . . . . []. []. . . . . []. [][][][][]. . . . [][][][][][][]. []. []. . . . . . . . . []. [][]. . . DD/\/\
/\/\/\DD. . . | . [][][][][][]. . . . . [][][][][][]. . . . . []. []. . . . . []. []. . . . . . . . [][][][][]. []. []. []. . . . . . . . . []. [][]--[][]DDDD/\
/\/\/\DD. . . [][][]. . . . | . . . . . []. . . . SD. . . . . []. []. . . . . []. []. . . . . . . . []. . . []. []--[]--[][]SD[]. . . . . [][]--[][]. . . . DD/\
/\/\/\DD. . . []. [][][][][][]. . . . . []. . . . []. . . . . []--[][][][][][][][][][][][][][][][][][]. . . [][][]. . . . . . []. . . . . []. . . []. . . . DD/\
/\/\/\DD. . . []. . . . . . []. . . . . []. . . . []. . . . . | . . . . . . | . . . . . . . . . . . | . . . | . | . . . . . . [][][][][][][]. . . []. . . . DD/\
/\/\DDDDDDDD--[][]. . . . . [][]--[][]SD[]. . . . []. . . . . []. . . . . . [][][][][][][][][][][][][]. . . [][][]. . . . . . | . . . . . | . . . []. . . . DD/\
/\/\DD. . . . . []. . . . . . []. []. . . . . . . [][][][][][][]. . . . . . []. . . . []. . . []. . [][][]--[][][]. . . . . . [][][][][][][]. . . []. . . . DD/\
/\/\DD. . . . . []. . . . . . []. []. . . . []SD[][][][][][][][][][][][][][][]. . . . []. . . [][][][][]. . . [][]. . . . . . []. . . . [][]--[][][]. . . . DD/\
/\/\DD. . . . . []. . . . . . []. []. . . . []. . . . . []. . . . | . . . [][][][][][][]. . . []. . . | . . . [][]. . . . . . []. . . . []. . . . [][][][]--DDDD
/\/\DD. . . . . []. . . . . . [][][]. . . . []. . . . . []. . . . []. . . []. . . . . | . . . [][][][][]. . . [][][][][][][][][]. . . . []. . . . []. []. . . DD
/\/\DD. . . . . [][][][][][][][][][][][][][][]. . . . . | . . . . []. . . | . . . . . [][]SD[][][][][][][][][][][][][][][][][][][][][][][]. . . . [][][]. . . DD
/\/\DD. . . . . | . . . . . . . . . . . . . | . . . . . DDDDDDDDDDDDDDDDDDDD. . . . . DDDD. . . . . . . . . . . . . . . . . . . . . . . | . . . . | . | . . . DD
/\/\DDDDDDDDDDDDDDDDDDDDDDDDDDDDDDDDDDDDDDDDDDDDDDDDDDDDDD/\/\/\/\/\/\/\/\DDDDDDDDDDDDDDDDDDDDDDDDDDDDDDDDDDDDDDDDDDDDDDDDDDDDDDDDDDDDDDDDDDDDDDDDDDDDDDDDDDDDDD
<z>-480</z> <x>118</x> <y>100</y> <n>Plain 5 -480'</n>
/\/\/\/\/\/\/\/\/\/\/\/\/\/\/\/\/\/\/\/\/\/\/\/\/\/\/\/\/\/\/\/\/\/\/\/\/\/\/\/\
/\/\/\/\. . . . /\/\/\/\/\/\/\. . /\/\/\/\/\/\/\/\/\/\/\/\. . . . /\/\/\/\/\/\/\
/\/\/\. . . . . . . /\/\/\/\. . . . . /\/\/\/\/\. . . . . . . . . . . /\/\/\/\/\
/\/\/\. . . . . . . . /\/\. . . . . . . /\/\/\. . . . . . . /\/\/\. . . /\/\/\/\
/\/\/\. . . . . . . . . . . . . . . . . . /\/\. . . . /\/\/\/\/\/\/\. . . /\/\/\
/\/\/\. . . /\/\/\. . . . . . . . . . . . /\/\/\. . . /\/\/\/\/\/\/\/\. . . /\/\
/\/\/\. . . /\/\/\. . . . . . . . . . . . /\/\/\. . . /\/\/\/\/\/\/\/\/\. . /\/\
/\/\/\. . . /\/\. . . /\. . . . . . . . . /\/\/\/\. . . /\/\/\/\/\/\/\/\. . /\/\
/\/\/\/\. . . . . . /\/\/\. . . . . . . . . /\/\/\/\. . /\/\/\/\/\/\/\/\. . /\/\
/\/\/\/\. . . . . /\/\/\/\. . . . . . . . . . /\/\. . . /\/\/\/\/\/\/\/\. . /\/\
/\/\/\/\. . . . /\/\/\/\/\/\. . . . . /\/\. . . . . . . /\/\/\/\/\/\/\/\/\. . /\
/\/\/\/\. . . /\/\/\/\/\/\/\/\. . . . /\/\/\. . . . . /\/\/\/\/\/\/\/\/\/\. . /\
/\/\/\/\/\. . /\/\/\/\/\/\/\/\/\. . . /\/\/\/\/\. . /\/\/\/\/\/\/\/\/\/\. . /\/\
/\/\/\/\/\. . /\/\/\/\/\/\/\/\/\. . . . . /\/\/\/\/\/\/\/\/\/\/\/\/\/\/\. . /\/\
/\/\/\/\/\. . /\/\/\/\/\/\/\/\. . . . . . . /\/\/\/\/\/\DDDDDDDDDD/\/\. . . /\/\
/\/\/\/\. . /\/\/\/\/\/\/\/\/\. . . ~~~~. . . /\/\/\/\/\DD. up. DD/\. . . /\/\/\
/\/\/\. . . /\/\/\/\/\/\/\/\/\. . ~~~~~~~~. . /\/\/\/\/\DD. . . DD/\. . /\/\/\/\
/\/\/\. . . /\/\/\/\/\/\/\/\/\. . ~~~~~~~~~~. . /\/\/\/\DDDD--DDDD/\. . /\/\/\/\
/\/\/\. . . /\/\/\/\/\/\/\/\/\/\. . ~~~~~~~~. . . . . . | . . . /\/\. . /\/\/\/\
/\/\/\/\. . . /\/\/\/\/\/\/\/\/\. . ~~~~~~~~. . . . /\/\DDDDDD--DD/\. . . /\/\/\
/\/\/\/\/\. . /\/\/\/\/\/\/\/\/\. . ~~~~~~~~~~. . . . /\/\DDMM. DD/\/\. . . /\/\
/\/\/\/\/\. . /\/\/\/\/\/\/\/\/\/\. . ~~~~~~~~~~~~~~. . /\/\DD**DD/\/\. . . /\/\
/\/\/\/\. . /\/\/\/\/\/\/\/\/\/\/\. . ~~~~~~~~~~~~~~~~. . /\DDDDDD/\. . . /\/\/\
/\/\/\/\. . /\/\/\/\/\/\/\/\/\/\/\/\. . ~~~~~~~~~~~~~~. . /\/\/\/\/\. . /\/\/\/\
/\/\/\/\. . /\/\/\/\/\. . /\/\/\/\/\. . . ~~~~~~~~~~~~. . /\/\/\/\/\. . /\/\/\/\
/\/\/\/\. . /\/\/\/\. . . . . . /\/\/\. . . . . ~~~~. . . /\/\/\/\/\. . /\/\/\/\
/\/\/\/\. . /\/\/\. . /\/\. . . . . /\/\/\. . . . . . . /\/\/\/\/\/\. . . /\/\/\
/\/\/\/\. . /\/\. . /\/\/\/\/\/\. . . /\/\/\/\. . . . /\/\/\/\/\/\/\/\. . . /\/\
/\/\/\/\. . /\/\. . /\/\/\/\/\/\/\. . . . /\/\/\/\/\/\/\/\/\/\/\/\/\/\/\. . . /\
/\/\/\/\/\. . /\/\. . /\/\/\/\/\/\/\/\. . . /\/\/\/\/\/\/\/\/\/\/\/\/\/\. . . /\
/\/\/\/\/\. . /\/\/\. . . /\/\/\/\/\/\/\/\. . /\/\/\/\/\/\/\/\. . . . . . . /\/\
/\/\/\/\. . /\/\/\/\/\. . . /\/\/\/\/\/\/\/\. . /\/\/\/\/\. . . . . . . . . /\/\
/\/\/\. . . /\/\/\/\/\/\. . /\/\/\/\/\/\/\/\. . /\/\/\/\. . . /\/\/\. . . . /\/\
/\/\. . . . /\/\/\/\/\/\. . /\/\/\/\/\/\/\. . . /\/\/\. . . /\/\/\/\/\. . /\/\/\
/\/\. . . . . /\/\/\/\. . . /\/\/\/\/\. . . . . . . . . . /\/\/\/\/\/\/\/\/\/\/\
/\/\/\. . . . . . . . . . . /\/\/\/\. . . . . . . . . . /\/\/\/\/\/\/\/\/\/\/\/\
/\/\/\/\. . . . . . . . . . /\/\/\/\/\. . . . . . /\/\/\/\/\/\/\/\/\/\/\/\/\/\/\
/\/\/\/\/\/\/\/\/\/\. . . . /\/\/\/\/\/\/\/\. . /\/\/\/\/\/\/\/\/\/\/\/\/\/\/\/\
/\/\/\/\/\/\/\/\/\/\/\. . /\/\/\/\/\/\/\/\/\/\/\/\/\/\/\/\/\/\/\/\/\/\/\/\/\/\/\
/\/\/\/\/\/\/\/\/\/\/\/\/\/\/\/\/\/\/\/\/\/\/\/\/\/\/\/\/\/\/\/\/\/\/\/\/\/\/\/\
