<z>0</z> <x>15</x> <y>8</y> <n>Underkingdom Town and Axe Portal and Surface (0')</n>
  DDDDDDDDDDDDDDDDDDDDDDDDDDDD  /\/\/\/\/\/\/\/\/\/\/\/\/\/\/\/\/\/\/\/\/\/\/\/\/\/\/\/\/\/\/\/\/\/\/\
  DD. . . . DD. . DD. . . MMDD  DD.t.t. . . . . . . . /\. . . {}{}. . . . . {}{}{}{}{}{}{}{}~~~~~~%%/\
  DD. . . . | . . | . . . . DDDDDD.t/\. . . . . . . . . . . . {}{}. /\. . . {}{}{}{}{}/\~~~~~~~~. %%/\
  DD. . DDDDDD. . DDDDDDDDDDDD. DD.t.t. . /\. . . . . . . . . . . . . . . . {}{}{}/\~~~~~~~~~~~~~~%%/\
  DDCC==DD. DD. . | . . . . DD. DD.t.t. {}{}. /\. . /\. {}/\. . /\. . /\. {}{}/\~~~~~~~~~~~~~~~~{}{}/\
  DD. . DDCCDD. . DD. . . MMDD. DD.t.t/\{}{}. . . . {}{}{}. /\. . . . . {}{}~~~~~~~~~~~~~~~~{}{}{}{}/\
  DDDDDDDD. DDo . DDDDDDDDDDDD--DD.t.t. . {}/\. . . {}/\. . . . . . {}/\~~~~~~~~~~~~~~~~~~~~~~{}{}{}/\
  DDLKMMDD. | . . . . . . . . . DD.t.t. /\. {}{}. . {}. . . . . . {}{}{}~~~~~~~~~~~~~~~~/\{}{}{}{}{}/\
  DD. . DDDDDD. . . . . . . . . DD.t.t. . . . {}{}/\. . . /\. /\{}{}~~~~~~~~~~~~~~{}{}{}{}{}{}{}/\{}/\
  DD. . . . | . . ~~~~. . . DD--DD.t.t/\. . . . . . . . . . . . {}~~~~~~~~~~~~~~{}{}. . . . {}{}{}{}/\
  DDDDDDDDDDDD. . ~~~~. . . DD. DD.t.t. . . /\. {}. . . . /\. {}{}~~~~~~~~~~~~{}{}{}/\. . {}/\. . . /\
  DD. . DD  DD. . . . . . . DD. DD.t.t. . . . /\{}. . . . {}{}~~~~~~~~~~~~/\{}{}. . . . . {}{}. . . /\
  DDdn. DD  DD. . . . . . . DDCCDD.t.t/\. . . . . {}/\. {}{}~~~~~~~~~~~~~~~~{}. . . . /\. . . /\. . /\
  DDDD. DD  DDdn. . . o . . DD. DD.t.t{}{}. . . . . . . {}~~~~~~. ~~~~{}/\{}{}. /\. . . {}/\. . . . /\
    DD. DD  DDDDDDDD.tDDDDDDDDDDDD.t.t{}{}/\. /\. . . {}{}~~~~. . ~~~~{}{}{}. . . . . {}. . . . . . /\
    DD. DD        DD.tDD        DD.t.t. . . . . . . {}/\~~~~~~~~~~~~{}{}. . . /\. . /\. /\. . . . . /\
    DD. DD        DD##DD        DD.t.t. . . . . . {}{}~~~~~~~~~~~~~~{}{}. . . . . . . . . . . /\. . /\
    DDSDDDDDDDDDDDDD.tDDDDDDDDDDDD.t.t. . . . /\{}~~~~~~~~~~~~/\{}{}{}. . . . . . /\. . . . {}. . . /\
    DD.t.t.t.t.t.t.t.t.t.t.t.t.t.t.t.t. . . . {}{}~~~~~~~~~~~~~~{}. . . /\. . . . . . . /\. . {}. . /\
    DD[][][][][]. . . . . . {}{}{}/\{}{}{}. . . {}~~~~~~~~~~~~{}{}. . . . . /\. . /\. /\. /\. {}{}. /\
    DD. . . . []. [][][][]/\{}~~~~~~{}{}{}{}{}. . ::~~~~~~~~{}{}. . . . . . . . . . . . . . . {}{}{}/\
    DD[][][]. []. SD. . . /\~~~~~~~~~~~~~~~~~~~~::::::~~{}{}. . . . /\. . . {}. . . . . . . . . . . /\
    DD. . []. []. []. . /\/\~~~~~~~~~~~~~~~~~~~~. ::::::/\. . . . . . . . . . . /\. {}. /\. {}{}. . /\
    DD. . []. []. []. /\/\~~~~~~~~~~~~~~~~~~~~~~. ::. . . . . {}{}{}{}{}. /\. {}. . . . {}{}. /\. . /\
    DD[]. []. []. /\/\/\~~~~~~~~~~~~{}{}{}/\{}~~~~~~/\. . . . . /\. . {}. . . . /\. . {}/\. . . . . /\
    DD. . []. []. /\~~~~~~~~~~~~~~~~{}. . . {}{}{}{}{}{}. . . . . . . . . . {}. {}. {}. . . /\. . . /\
    DD. . . . . . /\~~~~~~~~~~~~{}{}{}. {}/\. {}{}{}{}{}{}. . . . . /\. {}/\. . {}. . . /\{}{}{}. . /\
    DD. . . . . /\/\~~~~~~{}{}/\{}. . . . . {}{}{}{}{}{}. . . /\. . . . . . . {}/\. . . . {}{}{}{}. /\
    DD. . . /\/\/\~~~~~~~~~~~~{}. . . /\. . . . . . . . . . . . . . . . . {}. {}{}. . /\. {}. . . {}/\
    DD. /\/\/\~~~~~~~~~~~~{}{}. . . . . . . . {}. . . . . . . . . . . /\. . {}/\{}{}. . . . /\. {}{}/\
    DD. /\~~~~~~~~~~~~{}{}{}. . . . . . . . . . . . {}/\. . . . . . . . {}{}. . . {}{}. . . . . {}{}/\
/\/\/\/\/\~~~~~~~~~~{}{}{}{}. . . . {}{}{}. /\. . . {}{}. /\. /\. . . /\{}. . . . . {}{}{}{}{}/\{}{}/\
WW~~##~~~~~~~~~~~~{}{}{}{}{}. . . . . {}{}{}. . . . . . . {}{}. . . . {}{}{}. . . /\. {}{}/\{}{}{}{}/\
WW~~##~~~~~~/\{}{}{}{}{}{}{}{}. . . . . . . {}. . . . . . {}{}. . . {}/\{}. . . . . . {}{}{}DDDDDDDD/\
WW~~##~~~~{}{}{}{}{}{}{}{}{}{}{}. . . . . . . . . . . . . . . . . . . . . . /\. . . /\. {}{}SD. . . /\
WW~~##~~~~{}{}{}{}{}{}{}{}{}{}{}{}{}{}{}{}. {}/\. . . . . /\. /\/\. . . /\. . . {}{}{}{}{}{}DDMM. . /\
/\/\/\/\/\/\/\/\/\/\/\/\/\/\/\/\/\/\/\/\/\/\/\/\/\/\/\/\/\/\/\/\/\/\/\/\/\/\/\/\/\/\/\/\/\/\/\/\/\/\/\
<z>-20</z> <x>0</x> <y>7</y> <n>Lower level of Kobold City (-20')</n>
DDDDDDDDDDDDDDDDDDDDDDDDDDDDDDDDDD
DD. . . . | . . . . . . . . . . DDDDDDDDDDDDDDDDDDDDDDDDDDDDDDDDDD
DD. . . . [][][][][][][]. . . . DD. MMmm. DD. . DD. . . DD. . . DD
DD. . . . | . . . . . . . . . . DD. . . . DDDD. DD==CC==DD. . . DD
DD--[][][][]. [][][]. . [][]--[]DD. . . . DD. . . . . . . . . . DD
DD. . []. . . []. . . . []. . . DD. . . . DD. . . . . . . . . . DD
DD. . [][][][][]--[]. . []. . []DDDDDD--DDDDDDDDDD----DDDDDDDDDDDD
DD. . []. . . . . [][][][]. . . . . . . . . . . . . . . DD. . . DD
DD--[][]. . . . . []. . . . . []DDDDDDDDDDDD. . . . . . | . BR. DD
DD. . . . . . . . | . . . . . . DD. DD. . | . . . . . . DD. . . DD
DD[][][]. . . []--[][][]--[][][]DDCCDDDDDDDD. . DD--DDDDDDDDDDDDDD
DD. . []. mm. []. . . . . . . . DD. DD. . DD. . DD. . . . . . . DD
DD. . [][][]SD[][][][][][][]--[]DD. . . . DD. . DD. DD. DD. DD. DD
DD. . []. . . []. . . . []. . . DDup. . . DD. . DDCCDDCCDDCCDDCCDD
DD[]--[]. . . []. . . . []. . . DD. . . . DDup. DD. DD. DD. DD. DD
DD. . []. (). []. . [][][][]--[]DDDDDDDDDDDDDDDDDDDDDDDDDDDDDDDDDD
DD. . [][][][][]. . . []. . . . DD
DD. . . . []. []. . . []. . . . DD
DD[][][]. []. | . . . [][][]. []DDDDDDDD
DD. . . . []. []. . . | . []. . . []. DDDDDDDDDDDDDDDDDDDDDDDDDDDDDD
DD[][][]--[][][][]--[][]. []. [][][]. . . . . []. . . []. . . []. DD
DD. . . . . . | . . . . . []. . . . . . . []. SD. . . | . . . SD. DD
DD. . . . . . [][]--[][][][][][][][]. [][][][][]. . . [][]--[][]. DD
DD. . . . . . []. . . . . . . . . | . . . . . SD. . . | . . . []dnDD
DDDDDDDDDDDDDDDDDDDDDDDDDDDDDDDDDDDDDDDDDDDDDDDDDDDDDDDDDDDDDDDDDDDD
<z>-50</z> <x>30</x> <y>24</y> <n>Underkingdom -50' (Orc Caverns)</n>
/\/\/\/\/\/\/\/\/\/\/\/\/\/\/\/\/\/\/\/\/\/\/\/\/\/\/\/\/\/\/\/\/\/\/\
/\[][][][][][][][][][][][][][][][][][][][][][][][][][][][][][][][][]/\
/\[]. . . . . []. . . []. . . []. . . []. . . []. . . | . . . []dn[]/\
/\[]. . . . . []. . . []. . . SD. . . []. . . []. . . []. . . []. []/\
/\[][][][][]. []--[]. [][][][][]. . . [][]--[][]. . . []--[]--[]. []/\
/\[]. . . []. . . []. []. . . []. . . | . . . []. . . []. []. []. []/\
/\[]up. . []. []. []. []. [][][]--[][][]. . . | . . . []. []. []. []/\
/\[]. . . []. []. | . . . []. . . []. []. . . []. . . []. . . []. []/\
/\[]. []--[]. []. []. . . []. . . []. | . . . []--[]--[][][]. []--[]/\
/\[]. []. . . []. []. . . | . . . []. []. . . []. []. . . | . . . []/\
/\[]. | . . . []. []. . . []. . . []. []. . . []. []. . . []. . . []/\
/\[][][][][][][][][][][][][][][][][][][][][][][][][][][][][][][][][]/\
/\/\/\/\/\/\/\/\/\/\/\/\/\/\/\/\/\/\/\/\/\/\/\/\/\/\/\/\/\/\/\/\/\/\/\
<z>-80</z> <x>2</x> <y>18</y> <n>Lightning Caverns -80'</n>
/\/\/\/\/\/\/\/\/\/\/\/\/\/\/\/\/\/\/\/\/\/\/\/\/\/\/\/\/\/\/\/\/\/\/\/\
/\[][][][][][][][][][][][][][][][][][][][][][][][][][][][][][][][][][]/\
/\[]. . . []. . . . . []. . . . . . . | . . . . . . . . . . . . . . []/\
/\[]. . . []. [][][]. []. . . . . . . [][][][][]. [][][][][][]. . . []/\
/\[]. cu. | . . . []. []. . . . . . . | . . . []. . . . . . []. . . []/\
/\[][][][][][][][][]. []--[][]--[][][][][][]--[][][]. [][][][][]. . []/\
/\[]. . . . . . . | . []. []. . . []. . . | . . . | . []. . . | . . []/\
/\[][][][][]. . . []. []. []. []. []. [][][]. . . []. []. . . []--[][]/\
/\[]. . . []. . . []. . . []. []. []. []. . . . . []. []. . . []. . []/\
/\[]. . . []--[][][]. [][][]. []. []. []. . . . . []. [][][]--[]. . []/\
/\[]. . . SD. . . . . | . . . []. . . []. . . . . []. . . []. []. . []/\
/\[][][][][][][][][]--[][][][][][][][][]--[][][]--[][][][][]. []. . []/\
/\[]~~~~~~[]~~[]. | . . . . . . . []. . . []. . . []. . . | . . . . []/\
/\[]~~[][][]. []. [][][][][][][]. []. []. []. []. []. []. []. . . . []/\
/\[]. []. | . []. []. . . []~~[]. . . []. []. []. []. []. []. . . . []/\
/\[]. []. []. . . []. . . []. []. [][][]. []. []. []. []--[][][][][][]/\
/\[]. {}. []{}. . | . . . []. . . . {}. . []. []. []. []. . . . . . []/\
/\[]{}[]{}[]~~[][][][]--[][]--[][][][]--[][]. []. []. []. {}. . {}. []/\
/\[]{}[]~~[]~~[]{}{}{}. {}. . {}{}{}{}. . []. []. . . []{}. {}{}. {}[]/\
WW##~~~~~~~~~~~~~~~~~~~~~~~~~~~~~~::. {}{}[]{}[][][][][][][][][]--[][]/\
WW##~~~~~~~~~~~~~~~~~~~~~~~~~~~~::::::{}{}[]. . {}[]{}. . | . []. . []/\
/\[]{}~~{}[]~~~~~~~~~~~~~~~~~~::::::~~~~{}[]. []. [][][]. []. []{}. []/\
/\[]{}~~~~[]{}{}{}. {}{}{}{}::::::~~~~~~~~[]{}[]. . . . {}[]. []{}{}[]/\
/\[]{}[][][][][][][][][]{}{}{}::~~~~~~~~~~~~{}[][][]--[][][]{}[]{}~~[]/\
/\[]. []. . . . . . . []{}{}{}{}~~~~~~~~~~~~{}{}{}{}. . . {}{}{}~~~~[]/\
/\[]. []. [][][][][]. [][][]~~::~~~~~~~~~~~~~~~~~~~~~~~~~~~~~~~~~~~~[]/\
/\[]. . . []. . . []. . . | ~~{}{}[]~~~~~~~~~~~~~~~~~~~~~~~~~~~~~~~~[]/\
/\[]. [][][][][]. | . [][][]~~~~{}[][][][][][][][][][][][][][][_[_[][]/\
/\[]. []. . . []. []. []. {}{}~~. []. []. . . | . . . . . []. . . . []/\
/\[]. []. . . []. [][][]. [][][]. []. []--[]. []. . . . . [][][]. . []/\
/\[]. []. . . | . []. . . []. . . SD{}. . []. []. . . . . []. . . . []/\
/\[]. []--[][][][][]SD[][][]{}[][][][][]. [][][][][][][][][][][]. . []/\
/\[]. . . []. . . . . []. . . | . . . []{}[]. . . []. . . . . . . . []/\
/\[][][][][]. . . . . []. [][][][][]. [][][]. []. []. [][][]. []. . []/\
/\[]. . . | . . . . . []. []. . . | . . . . . []. | . []. . . []. . []/\
/\[]. . . [][][][][]--[]. []. . . [][][][][][][][][][][][][][][]--[][]/\
/\[]. . . . . . . []. []. []. . . . . . []. . . . . . . []. . . . . []/\
/\[]. . . [][][]. []. []. []--[][][][][][][]. . . []. . . . . dn. . []/\
/\[]. . . . . []. | . | . . . []. . . | . . . . . []. []. . . . . . []/\
/\[][][][][][][][][][][][][][][][][][][][][][][][][][][][][][][][][][]/\
/\/\/\/\/\/\/\/\/\/\/\/\/\/\/\/\/\/\/\/\/\/\/\/\/\/\/\/\/\/\/\/\/\/\/\/\
<z>-100</z> <x>55</x> <y>0</y> <n>Goblin Jungle (-100J)</n>
/\/\/\/\/\/\/\/\/\          /\/\/\/\/\
/\{}{}{}{}{}{}{}/\          /\{}{}{}/\
/\{}{}/\{}{}{}{}/\  /\/\/\  /\{}{}{}/\
/\{}{}{}{}{}{}{}/\  /\dn/\  /\{}{}{}/\
/\{}{}{}{}/\{}{}/\/\/\. /\/\/\{}{}{}/\
/\/\/\/\/\/\{}{}{}{}{}. {}{}{}{}{}{}/\
          /\{}{}/\{}. . {}{}{}{}{}{}/\
        /\/\. . . . . {}/\{}{}{}/\{}/\
        /\/\. {}. . . . . {}{}{}{}{}/\
    /\/\/\. . {}. %%%%%%. {}{}{}{}{}/\
/\/\/\{}. . {}{}. . %%%%. {}{}/\{}{}/\
/\{}{}{}. {}{}{}. %%%%%%. {}{}{}/\/\/\
/\{}{}/\. {}/\{}. . . . . {}{}{}/\
/\{}{}{}. {}{}{}{}{}{}{}{}{}{}/\/\
/\{}{}{}. . {}{}{}{}{}{}{}{}{}/\
/\{}{}/\{}. . . {}/\{}{}{}{}{}/\
/\{}{}{}{}{}{}. {}{}{}/\/\/\/\/\
/\{}{}{}{}{}/\. {}{}/\/\
/\{}{}{}{}{}. . {}{}/\
/\{}{}/\{}{}. {}{}{}/\
/\{}{}{}{}{}. {}{}/\/\/\
/\/\/\/\{}{}. {}{}{}{}/\/\/\
      /\/\{}. /\{}{}{}{}{}/\
        /\{}. . {}{}{}{}{}/\
        /\{}{}. {}{}{}{}{}/\
        /\/\/\. /\/\/\/\/\/\
            /\up/\
            /\/\/\
<z>-100</z> <x>21</x> <y>49</y> <n>Realm of the Speedy Hobs (-100W)</n>
/\/\/\/\/\/\/\/\/\/\/\/\/\/\/\/\/\/\/\/\/\/\/\/\/\/\/\/\/\/\/\/\/\/\/\/\/\/\/\/\/\/\/\/\/\/\/\/\/\/\/\
/\[][][][][][][][][][][][][][][][][][][][][][][][][][][][][][][][][][][][][][][][][][][][][][][][][]/\
/\[]. . []. . . . . . . . . . . []. . . []. . . []. []. . . []. . . . . []. . . []. []. []. SD. . []/\
/\[]. . | . . . . . . . . . . . []. . . | . . . []. []. . . . . []. . . []. . . []. []. []. []. . []/\
/\[]. . []. . . [][]--[][][][][][]. []. [][][][][]. | . [][][][][]. . . []. . . []. []. | . []. . []/\/\
/\[][]--[]. . . []. . . . . . . | . []. . . []. . . []. []. . . | . . . []. . . []. []. []. []. . [][]/\
/\[]. . [][][]SD[]. . . up. . . [][][][][]. [][][][][]. []. [][][][][][][][][][][]. []. []. []. . . []/\
/\[]. . . . []. []. . . . . . . . . . . []. . . | . . . . . []. . . . . []. . . []. . . []. []. . . []/\
/\[][]--[]. [][][]. [][][][][][][][][]. [][][][][]. [][][][][]. . . [][][]--[]. []. [][][]--[][][][][]/\
/\[]. . []. . . []. | . . . . . . . []. . . . . . . []. . . . . . . []. . . []. []. []. . . . . []. []/\
/\[][][][]. . . []. [][][]--[][][]. [][][][][][][]. []. . . . . . . []. . . [][][]. []. [][][]. []. []/\
/\[]. . | . . . | . []. . . []. []. . . | . . . []. []. . . . . . . []. . . | . . . []. []. . . []. []/\
/\[]. . [][][][][]. []. . . []--[][][][][]. . . []--[][][][][]. . . []. . . [][][][][]. []--[][][]--[]/\
/\[]. . []. . . . . []. . . []. . . . . []. . . []. . . . . []. . . []. . . []. . . | . . . []. . . []/\
/\[]. . []. . . . . [][][][][]. . . [][][]. . . [][][]. [][][][][][][]--[][][]. . . []. dn. []. . . []/\
/\[]. . | . . . . . | . . . | . . . | . . . . . | . . . . . . . . . . . . . SD. . . []. . . | . . . []/\
/\[][][][][][][][][][][][][][][][][][][][][][][][][][][][][][][][][][][][][][][][][][][][][][][][][][]/\
/\/\/\/\/\/\/\/\/\/\/\/\/\/\/\/\/\/\/\/\/\/\/\/\/\/\/\/\/\/\/\/\/\/\/\/\/\/\/\/\/\/\/\/\/\/\/\/\/\/\/\/\
<z>-150</z> <x>64</x> <y>1</y> <n>Upper Corridor from Forest to Troll.King's Courtyard (-150')</n>
/\/\/\/\/\/\/\/\/\/\/\/\/\/\/\/\/\/\/\
/\[][][][][]/\/\/\/\[][][][][][][][]/\
/\[]up. . [][][][][][]. . . . . . []/\
/\[][][]. . . . . . . . [][][][]dn[]/\
/\/\/\[][][][][][][][][][]/\/\[][][]/\
    /\/\/\/\/\/\/\/\/\/\/\/\/\/\/\/\/\
<z>-200</z> <x>78</x> <y>2</y> <n>Lower Corridor from Forest to Troll.King's Courtyard (-200C)</n>
/\/\/\/\/\
/\[][][]/\/\/\/\/\/\/\/\/\/\/\/\/\
/\[]up[][][][][][][][][][][][][]/\
/\[]. . . . . . . . . . . . . []/\
/\[][][][][][][][][][][][][]. []/\/\
/\/\/\/\/\/\/\/\/\/\/\/\/\[]. [][]/\
                        /\[]. dn[]/\
                        /\[][][][]/\
                        /\/\/\/\/\/\
<z>-200</z> <x>57</x> <y>1</y> <n>Googog's Jungle (-200G)</n>
/\/\/\/\/\/\/\/\/\/\
/\{}{}{}{}{}{}{}{}/\
/\{}{}{}{}{}{}{}{}/\
/\{}{}/\{}{}{}{}{}/\
/\{}{}{}{}{}{}{}{}/\/\/\/\
/\{}{}/\{}{}{}/\{}{}{}{}/\/\
/\{}{}{}{}{}{}{}{}{}{}{}{}/\
/\{}{}{}{}/\. . . . . {}{}/\
/\{}{}{}{}{}. . %%%%. {}{}/\
/\{}/\{}{}{}. %%%%%%. {}{}/\
/\{}{}{}{}{}. %%%%%%. {}{}/\
/\{}{}{}{}{}. . . . . {}{}/\
/\{}{}/\{}{}{}{}{}{}{}{}/\/\
/\{}{}{}{}{}{}{}/\{}{}{}{}/\
/\{}{}{}{}/\/\/\/\/\/\/\/\/\
/\{}{}{}/\/\
/\{}{}{}{}/\
/\/\/\{}/\/\/\/\/\
    /\{}{}{}{}/\/\/\/\
    /\/\{}{}{}{}{}{}/\/\/\
      /\{}/\{}{}{}{}/\{}/\/\/\/\/\
      /\/\/\{}{}{}{}{}{}DD. MM{}/\
          /\/\/\{}{}{}{}SD. . . /\
              /\{}{}{}{}DD. . . /\
              /\/\/\/\/\/\/\/\/\/\
<z>-200</z> <x>60</x> <y>43</y> <n>Yasnaki Complex and Carfel's Lair (-200Y)</n>
/\/\/\/\/\/\/\/\/\/\/\/\/\/\/\/\/\/\/\/\/\/\/\/\/\/\/\/\/\/\/\/\/\/\/\/\/\/\/\/\
/\[][][][]DD[][][][][][][][][][]DDDDDDDDDDDD[][][][][][][][][][][][][][][][][]/\
/\[]. MM. DD. []. . . . . . . . DD. . . . DD. . . . . []. . . | . dn. . . . []/\
/\[]. . . DD. []. . . . . . . . DD. . . . DD[][][][]. []--[][][]. . . . . . []/\
/\DDDDSDDDDD. [][][][]--[][][][]DD. . . MMDD. . . []. []. . . []. . . . . . []/\
/\DDwbwbwbDD. | . . . . . . . . SD. mmmmmmDD. . . []. | . . . [][][][]--[][][]/\
/\DDwbwbwbDD. [][][][]--[][][][]DDDDDDDDDDDD. . . . . []. . . . . []. . . . []/\
/\DDwbwbwbDD. []. . . . . . . []. . . . . DD. . . [][][]--[][][][][]. . . . []/\
/\DDwbwbwbDD. | . . MM. MM. . | . . . . . DD. . . []. . . []. . . []. . . . []/\
/\DDDDDDDDDDDDDDDDDDDDDDDDDDDDDDDDDDDDDDDDDD[][]--[]. . . []. . . [][][]--[][]/\
/\[]. . . SD. . . | . . . | . . . . . | . . . . . []. . . []. . . | . []. . []/\
/\[][][][][]. MM. []. . . []. ~~~~~~. []. [][][]. []--[][][][][][][]. []. . []/\
/\[]. . . | . . . | . . . []. ~~~~~~. []. []. . . []. []. . . . . []. . . . []/\
/\[][]--[][][][][][][][]--[]. ~~~~~~. [][][]. [][][]. []. . [][]--[]--[]. . []/\
/\[]. . . []. . . []. . . | . . . . . | . . . . . []. | . . . []. . . []. . []/\
/\[]. . . [][][]. []. []--[][][]--[][][][][][][][][]. [][][]. []. . . []. . []/\
/\[]. . . SD. . . []. []. . . | . . . . . | . . . []. []. . . []. . . []. . []/\
/\[]--[]--[][][][][]. []. . . []--[][][][][]. . . []. []. [][][]--[][][]. . []/\
/\[]. []. . . . . . . []. . . []. . . . . []. . . []. []. . . . . []. . . . []/\
/\[]. []. . . . . [][][][][]--[][][]. []SD[][][]SD[]. | . . . [][][]. []. . []/\
/\[]. []. up. . . []. . . SD. . . . . []. . . []. []. []. . . . . . . []. . []/\
/\[]. []. . . . . []. . . []. . . . . []. . . []. []. []. . . . . . . []. . []/\
/\[][][][][][][][][][][][][][][][][][][][][][][][][][][][][][][][][][][][][][]/\
/\/\/\/\/\/\/\/\/\/\/\/\/\/\/\/\/\/\/\/\/\/\/\/\/\/\/\/\/\/\/\/\/\/\/\/\/\/\/\/\
<z>-300</z> <x>63</x> <y>4</y> <n>Troll King's Courtyard (-300T)</n>
                                                    /\/\/\/\/\/\/\/\/\/\/\/\/\/\/\/\/\/\
                                                    /\[][][][][][][][][][][][][][][][]/\
                                                    /\[]. . . . . . []. []. . . . . []/\
                                                    /\[]. . . . . . []. | . . . . . []/\
/\/\/\/\/\/\/\/\/\/\/\/\/\/\/\/\/\/\/\/\/\/\/\/\/\  /\[]. . up. [][][]. []SD[][]--[][]/\
/\~~~~~~~~. {}{}. . . {}{}. . . . . . . . . . . /\/\/\[]. . . . | . . . []. []. . . []/\/\/\/\/\/\/\/\/\/\/\/\
/\~~~~~~~~. . . . {}. {}{}. . . {}. . {}. . . {}/\/\[][][][][][][][][][][]. []. . . [][][][][][][][][][][][]/\
/\~~~~~~~~. {}. . . . . . . . . . . {}. . {}. . /\/\[]. /\. /\. /\. /\. []. []. . . . . . . | . . . | . . []/\
/\~~~~~~~~. {}. {}{}. {}{}. . . {}. . {}. {}. {}[][][]*5. *5. *5. *5. *5[]. []. . . [][][][][]. . . [][]--[]/\
/\. . . . {}. . . {}. . {}{}. . . . {}{}. . . . . . | . . . . . . . . . [][][]. . . []. . . | . . . []. . []/\
/\. . . {}{}. {}{}. . . . . . . . . . . . . . . . . | . . . . . . . . . . . . . []--[]. [][][][]--[][]. . []/\
/\. {}. . . . . . . . {}. {}. . {}{}{}. . {}. . . . | . . . . . . . . . [][][]. []. . . []. . . . . []. . []/\
/\{}. . {}. {}{}. {}up{}. {}up. . . . {}. . . {}[][][]*5. *5. *5. *5. *5[]. . . [][][][][]. []. []. []. . []/\
/\. . {}{}. . . . . [][]--[][]{}. . . . {}. . . /\/\[]. /\. /\. /\. /\. []. []. . . | . . . []. []. []. . []/\
/\. {}. . {}. . {}{}[]. . . []{}{}. . {}. . . {}/\/\[][][][][][][][][][][]. [][][][][]. . . []--[][][]. . []/\
/\. {}{}. . [][][][][]. . . [][][][][]. . {}{}. /\/\[]. . . . . . . []. . . []. . . []. . . []. . . [][]--[]/\
/\{}{}. {}{}[]. . MM[]. . . []MM. . []{}{}{}{}{}/\/\[]. . . . . . . | . . . []. . . [][][][][]. . . . . . []/\
/\. . . {}{}SD. . . []mmMMmm[]. . . SD{}{}{}{}{}/\/\[]. . . . . . . []. . . | . . . . . . . | . . . up. . []/\
/\/\/\/\/\/\DDDDDDDDDDDDDDDDDDDDDDDDDD/\/\/\/\/\/\/\[][][][][][][][][][][][][][][][][][][][][][][][][][][][]/\
                                                  /\/\/\/\/\/\/\/\/\/\/\/\/\/\/\/\/\/\/\/\/\/\/\/\/\/\/\/\/\/\
<z>-240</z> <x>70</x> <y>13</y> <n>Troll King's Palace (-240')</n>
%%%%%%%%%%%%%%%%%%%%%%
%%%%%%%%%%%%%%%%%%%%%%
%%%%%%%%%%%%%%%%%%%%%%
%%%%%%dn%%%%%%dn%%%%%%
%%%%%%. . . . . %%%%%%
%%%%%%. . . . . %%%%%%
DDDDDDDD------DDDDDDDDDD
DDdn. SD. . . []. . . DD
DD[][][]. . . []. . . DD
DD. . | . . . | . . . DD
DD. . []. . . []. . . DD
DD[][][]. . . [][][][]DD
DD. . []. . . []. . . DD
DDMM. | . . . | . . MMDD
DD. . []. . . []. . . DD
DD[]--[]. . . [][]--[]DDDDDDDDDDDDDDDDDDDDDDDD
DD. . []. . . []. . . DD~~. MM. . *5. . MM. DD
DDDDDDDD------DDDDDDDDDD[]. . . *5~.*5. . . DD
DDdnDD. . . . . . DD. DD. . . *5~.. ~.*5. . DD
DD. SD. . . . . mmDD. DD[]. . . *5~.*5. . . DD
DD. DD. . . . . MMDD. DD~~. MM. . *5. . MM. DD
DD. DD. . . . . . SD. DDDDDDDDDDDDDDDDDDDDDDDD
DDDDDDDDDDDDDDDDDDDDDDDD
<z>-280</z> <x>69</x> <y>18</y> <n>Troll King's Jail Block</n>
/\/\/\/\/\/\/\/\/\/\/\/\/\/\
/\[][][][][][][][][][][][]/\
/\[]up. . []. . []. . MM[]/\
/\[]. . . | . . | . . . []/\
/\DDDDDDDDDD. . DDDDDDDDDD/\
/\/\[]. . ##. . ##. . []/\/\
/\/\DDDDDDDD. . DDDDDDDD/\
  /\[]. . ##. . ##. . []/\
  /\DDDDDDDD. . DDDDDDDD/\
  /\[]. . ##. . ##. . []/\
  /\DDDDDDDD. . DDDDDDDD/\
/\/\[]. . ##. . ##. . []/\/\
/\DDDDDDDDDDDDDDDDDDDDDDDD/\
/\[]up[]. . . . . . []. []/\
/\[]. []. . . . . . []. []/\
/\[]. []. []. . []. . . []/\
/\[]. SD. []. . []. . . []/\
/\[][][][][][][][][][][][]/\
/\/\/\/\/\/\/\/\/\/\/\/\/\/\
<z>-280</z> <x>109</x> <y>18</y> <n>Connecting</n>
/\/\/\/\/\/\/\/\/\/\/\/\/\/\/\/\/\/\/\/\/\/\/\/\
/\[][][][][][][][][][][][][][][][][][][][][][]/\
/\[]. []. . . []. . . []. . . []. []. . . . []/\
/\[]. []dn. . | . . . | . . . []. | . . . . []/\
/\[]. []. . . [][][][][]. . . []. []. . . . []/\
/\[]. | . . . []. . . []. . . []. []. . . . []/\
/\[]. [][][][][]. . . [][][]--[]. [][][]--[][]/\
/\[]. . . . . | . . . | . . . . . SD. . . . []/\
/\[][][][][][][][][][][][][][][][][][][]--[][]/\
/\[]. . . . SD. . []. . . . []. . . . []. . []/\
/\[]. . . . []. . | . . . . [][][][]. []. . []/\
/\[]. . . . []. . []. . dn. . . . . . . . . []/\
/\[][][][][][][][][][][][][][][][][][][][][][]/\
/\/\/\/\/\/\/\/\/\/\/\/\/\/\/\/\/\/\/\/\/\/\/\/\
<z>-300</z> <x>89</x> <y>27</y> <n>Older Yasnaki Complex (a.k.a. Undead Level) (-300U)</n>
/\/\/\/\/\/\/\/\/\/\/\/\/\/\/\/\/\/\/\/\/\/\/\/\/\/\/\/\/\/\/\/\/\/\/\/\/\/\/\/\
/\[][][][][][][][][][][][][][][][][][][][][][][][][][][][][][][][][][][][][][]/\
/\[]. . . . . . . . []. . . []. . . . . . . . . . []. . . []. . up. . []. . []/\
/\[]. . . . . . . . []. . . | . . {}. ~~~~. {}. . | . . . []. . . . . []. . []/\
/\[]. . . . []. . . []. . . []{}. {}. ~~~~. {}. {}[]. . . []. . . . . []. . []/\
/\[][][][]. []. []. [][][][][]{}. . . ~~~~. . . {}[][][][][][][]. . []. . [][]/\
/\[]. . . . . . []. []. . . []{}. {}. ~~~~. {}. {}[]. . . []. . . . []. . . []/\
/\[]. . []. []. . . []. . . | . . {}. ~~~~. {}. . | . . . []. . . . . . . . []/\
/\[]. . . . . . . . []. . . []{}. . . ~~~~. . . {}[]. . . []. . . . []. . . []/\
/\[]. [][]. . . []. [][][][][]{}. {}. ~~~~. {}. {}[][][][][]. . . ~~. . [][][]/\
/\[]. . . . . . []. []. . . []{}. {}. ~~~~. {}. {}[]. . . []. . . ~~~~~~. . []/\
/\[]. . . . []. []. []. . . | . . . . ~~~~. . . . | . . . []. []. []. . ~~~~[]/\
/\[]. . . . . . . . []. . . []{}. {}. ~~~~. {}. {}[]. . . []. . . . ~~~~~~. []/\
/\[][]--. . []. . . [][][][][]{}. {}. . . . {}. {}[][][][][]. . . . ~~[]. [][]/\
/\[]. . . . . . . . []. . . []{}. . . . . . . . {}[]. . . []. [][]. ~~. . . []/\
/\[][]--[][][]. []. []. . . | . . . {}. . {}. . . | . . . []. . . . ~~. . . []/\
/\[]. . . . . . . . | . . . []. . DDDD####DDDD. . []. . . | . . []. ~~. . . []/\
/\[]. . . . [][][]. DDDDDDDDDD{}. DDMM. . MMDD. {}DDDDDDDDDD[]. . . ~~~~. [][]/\
/\[]. . up. []. . . DD. . . DDDDDDDD. . . . DDDDDDDD. . . DD. . . . ~~~~. . []/\
/\[]. . . . . . . . SD. . . SD. . SD. dndn. SD. . SD. . . SD. . . ~~~~. . . []/\
/\[][][][][][][][][]DDDDDDDDDDDDDDDDDDDDDDDDDDDDDDDDDDDDDDDD. . ~~~~. . . . []/\
/\/\/\/\/\/\/\/\/\/\/\                                  /\[]. ~~~~. . . . . []/\
                                                        /\[][][][][][][][][][]/\
                                                        /\/\/\/\/\/\/\/\/\/\/\/\
<z>-350</z> <x>104</x> <y>45</y> <n>Mummy's Crypt (-350)</n>
DDDDDDDDDDDDDDDDDDDD
DD. . SDupupSD. . DD
DDMM. DD. . DD. MMDD
DDDDSDDD. . DDSDDDDD
DDMM. ##. . ##. MMDD
DDDDSDDD. . DDSDDDDD
DDMM. ##. . ##. MMDD
DDDDSDDD. . DDSDDDDD
DDMM. ##. . ##. MMDD
DDDDSDDD. . DDSDDDDD
DDmm. DD. . DD. mmDD
DDMM. ##. . ##. MMDD
DDmm. DD. . DD. mmDD
DDDDDDDD----DDDDDDDD
DD. . mm. . mm. . DD
DDmm. . . . . . mmDD
DDmm. mm. dnMM. mmDD
DDDDDDDDDDDDDDDDDDDD
<z>-400</z> <x>104</x> <y>60</y> <n>Exploding Corridor and the Overlord (-400)</n>
        DDDDDDDD
        DDup. DD
        DD. . DD
    DDDDDD. . DDDDDD
    DD. ##. . ##. DD
    DDDDDD. . DDDDDD
    DD. ##. . ##. DD
    DDDDDD. . DDDDDD
    DD. ##. . ##. DD
    DDDDDD. . DDDDDD
    DD. ##. . ##. DD
    DDDDDD. . DDDDDD
        DD. DDDDDDDD
DDDDDDDDDDDDDDDDDDDDDD
DD~~. . . . . . . ~~DD
DDMM. . . . . . . MMDD
DD~~. . . . . . . ~~DD
DDDDDDDDmmMMmmDDDDDDDD
      DDDDDDDDDD
